<?xml version="1.0" encoding="utf-8"?>
<!-- Generator: Adobe Illustrator 24.3.0, SVG Export Plug-In . SVG Version: 6.00 Build 0)  -->
<svg version="1.1" id="Calque_1" xmlns="http://www.w3.org/2000/svg" xmlns:xlink="http://www.w3.org/1999/xlink" x="0px" y="0px"
	 viewBox="0 0 677.3 267.9" style="enable-background:new 0 0 677.3 267.9;" xml:space="preserve">
<style type="text/css">
	.st0{clip-path:url(#SVGID_2_);}
	.st1{clip-path:url(#SVGID_4_);}
	.st2{clip-path:url(#SVGID_8_);fill:#FFFFFF;}
	.st3{clip-path:url(#SVGID_10_);fill:none;stroke:#5DB19F;stroke-width:8;stroke-linecap:round;stroke-linejoin:round;}
	.st4{clip-path:url(#SVGID_12_);}
	.st5{fill:#5DB19F;}
	.st6{clip-path:url(#SVGID_14_);fill:none;stroke:#5DB19F;stroke-width:4;stroke-linecap:round;stroke-linejoin:round;}
</style>
<g>
	<g>
		<defs>
			<rect id="SVGID_1_" x="133" y="64.7" width="411.4" height="138.4"/>
		</defs>
		<clipPath id="SVGID_2_">
			<use xlink:href="#SVGID_1_"  style="overflow:visible;"/>
		</clipPath>
		<g class="st0">
			<g>
				<defs>
					<rect id="SVGID_3_" x="133" y="64.7" width="411.4" height="138.4"/>
				</defs>
				<clipPath id="SVGID_4_">
					<use xlink:href="#SVGID_3_"  style="overflow:visible;"/>
				</clipPath>
				<g class="st1">
					<g>
						<g>
							<defs>
								<rect id="SVGID_5_" x="144.5" y="74.3" width="388.3" height="125.3"/>
							</defs>
							<clipPath id="SVGID_6_">
								<use xlink:href="#SVGID_5_"  style="overflow:visible;"/>
							</clipPath>
						</g>
					</g>
				</g>
			</g>
			<g>
				<defs>
					<rect id="SVGID_7_" x="133" y="64.7" width="411.4" height="138.4"/>
				</defs>
				<clipPath id="SVGID_8_">
					<use xlink:href="#SVGID_7_"  style="overflow:visible;"/>
				</clipPath>
				<path class="st2" d="M180.7,89.7c-3,0-5.4,3.8-5.4,8.6v54.9c0,4.7,2.4,8.6,5.4,8.6h324.2c3,0,5.4-3.8,5.4-8.6v-27.4V98.2
					c0-4.7-2.4-8.6-5.4-8.6L180.7,89.7L180.7,89.7z"/>
			</g>
			<g>
				<defs>
					<rect id="SVGID_9_" x="133" y="64.7" width="411.4" height="138.4"/>
				</defs>
				<clipPath id="SVGID_10_">
					<use xlink:href="#SVGID_9_"  style="overflow:visible;"/>
				</clipPath>
				<path class="st3" d="M180.7,89.7c-3,0-5.4,3.8-5.4,8.6v54.9c0,4.7,2.4,8.6,5.4,8.6h324.2c3,0,5.4-3.8,5.4-8.6v-27.4V98.2
					c0-4.7-2.4-8.6-5.4-8.6L180.7,89.7L180.7,89.7z"/>
			</g>
		</g>
	</g>
	<g>
		<defs>
			<rect id="SVGID_11_" x="133" y="64.7" width="411.4" height="138.4"/>
		</defs>
		<clipPath id="SVGID_12_">
			<use xlink:href="#SVGID_11_"  style="overflow:visible;"/>
		</clipPath>
		<g class="st4">
			<path class="st5" d="M239.9,118.6h15.2l-3,4.4l-12.2-0.5l-0.1,17.7h-6.3v-31.9c1.6,0,3.4,0,5.3,0c2,0,4.2,0,6.9,0
				c2.7,0.1,4.9,0.2,6.7,0.3c1.8,0.1,3.4,0.2,4.7,0.4l-2.9,4.1c-4.5-1.4-8.6-2.1-12.4-2.1H240l0,0L239.9,118.6z"/>
			<path class="st5" d="M264.4,120.9c0.5-0.4,0.9-0.8,1.2-1.2c0.3-0.3,0.7-0.7,1.1-1c1-0.9,1.9-1.3,2.7-1.3c0.7,0,1.4,0.3,2,0.8
				c0.1,0.1,0.6,0.6,1.6,1.6c-0.1,0.6-0.3,1.1-0.5,1.5s-0.5,0.8-0.9,1.1c-0.3,0.3-0.7,0.6-1.2,0.8s-0.9,0.3-1.4,0.3
				c-0.6,0-1.3-0.3-2-0.8c-0.5-0.4-0.7-0.6-0.8-0.6c-0.1,0-0.2,0.2-0.4,0.5v12.5c0,0.3,0.2,0.5,0.5,0.7c0.4,0.2,1.1,0.3,2.3,0.3
				l-4.4,4.5c-3-1.1-4.6-2.4-4.6-4l-0.3-13.8l-2.3-1.2l0.6-1.8l3.3-2.6c1.9,1,3,1.7,3.3,2.1v1.6H264.4z"/>
			<path class="st5" d="M272.8,131c0-3.7,0.9-6.8,2.7-9.4c2-2.7,4.4-4,7.4-4c2.4,0,4.6,0.7,6.4,2.1c2,1.5,3,3.4,3,5.7
				c0,1.1-0.1,2.4-0.4,3.7l-13.8-0.2c0.2,4.6,3.1,6.9,8.8,6.9c1.4,0,2.9-0.5,4.7-1.5c-1.2,2.8-2.7,4.8-4.4,5.9
				c-0.6,0.1-1.1,0.1-1.6,0.2c-0.4,0-0.8,0.1-1.1,0.1c-3.1,0-5.9-0.9-8.3-2.8C274,135.8,272.8,133.6,272.8,131L272.8,131z
				 M281.8,121.2L281.8,121.2c-2.4,0-3.5,1.7-3.5,5l8.5,0.2C286.4,123,284.7,121.2,281.8,121.2z"/>
			<path class="st5" d="M295.5,131c0-3.7,0.9-6.8,2.7-9.4c2-2.7,4.4-4,7.4-4c2.4,0,4.6,0.7,6.4,2.1c2,1.5,3,3.4,3,5.7
				c0,1.1-0.1,2.4-0.4,3.7l-13.8-0.2c0.2,4.6,3.1,6.9,8.8,6.9c1.4,0,2.9-0.5,4.7-1.5c-1.2,2.8-2.7,4.8-4.4,5.9
				c-0.6,0.1-1.1,0.1-1.6,0.2c-0.4,0-0.8,0.1-1.1,0.1c-3.1,0-5.9-0.9-8.3-2.8C296.7,135.8,295.5,133.6,295.5,131L295.5,131z
				 M304.4,121.2L304.4,121.2c-2.4,0-3.5,1.7-3.5,5l8.5,0.2C309,123,307.3,121.2,304.4,121.2z"/>
			<path class="st5" d="M324.6,127c1.7,0,3.1-0.4,4.3-1c1.5-0.8,2.6-1.1,3.4-1.1h0.1c1.7,0,3.2,0.5,4.6,1.5c1.5,1.1,2.3,2.5,2.3,4.2
				c0,3.2-1.4,5.7-4.2,7.5c-2.2,1.5-4.5,2.2-6.9,2.2c-2,0-3.9-0.4-5.7-1.3c-0.8-0.3-2.4-1.3-4.6-2.8c1.4-1.4,3-2.4,5-3.2
				c2.9,2.4,5.9,3.6,9.1,3.6c1,0,1.7-1.1,2-3.3c0-1.1-0.3-2.1-1-2.9c-0.6-0.8-1.5-1.1-2.5-1.1c-0.4,0-0.8,0.1-1.1,0.3
				c-0.8,0.5-1.4,0.9-1.9,1c-1,0.3-2.3,0.5-4.1,0.5c-1.2,0-2.3-0.5-3.2-1.4c-0.9-0.9-1.4-2.1-1.4-3.4c0-2.4,1.2-4.5,3.5-6.4
				c2.1-1.7,4.1-2.5,6.2-2.5c2.4,0,5.5,1.3,9.1,3.8c-1.1,1.3-2.6,2.4-4.3,3.2c-0.3-0.2-0.8-0.4-1.5-0.7c-0.7-0.3-1.6-0.8-2.7-1.4
				c-0.8-0.4-1.5-0.7-2-0.8c-0.5-0.2-1-0.2-1.2-0.2c-0.5,0-1,0.2-1.5,0.6s-0.7,0.8-0.7,1.4C323.6,125.2,324,126.5,324.6,127z"/>
			<path class="st5" d="M353.1,118.3v3.7h-3.3v13.6l1.9,1.2l-3,3.5c-1.4-0.2-2.6-0.5-3.6-1.1c-1.1-0.8-1.7-1.7-1.7-2.7V122h-3
				l0.6-3.2c0.4-0.1,0.8-0.2,1.1-0.3c0.3-0.1,0.5-0.1,0.7-0.1c2.4-3,3.9-5.9,4.5-8.8h1.7l1,8.7h2l0,0
				C352,118.3,353.1,118.3,353.1,118.3z"/>
			<path class="st5" d="M369.4,123.1c0.4-1.9,1.2-3.7,2.4-5.3c2.1,0,3.7,0.6,4.7,1.9c0.9,1.1,1.4,2.3,1.4,3.7c0,0.8-0.1,1.4-0.4,2
				l-7.9,15.6l1.5,6.4l-3.6,1.5c-1.1-3.3-1.7-5.5-1.8-6.7l0.4-2.4c-0.6-0.2-1.2-0.5-2-1.1l-6.8-16.1l-1.3-0.5l3-4.4h0.7
				c0.8,0,1.6,0.2,2.4,0.6c0.8,0.5,1.4,1.2,1.7,2l5.7,14.7l3.4-6.6c0.3-0.5,0.4-1.1,0.4-1.8c0-0.5-0.1-1-0.2-1.4
				c-0.2-0.5-0.3-0.9-0.5-1.2c-0.2-0.3-0.4-0.5-0.7-0.7c-0.3-0.2-0.6-0.3-0.9-0.3c-0.2,0-0.6,0.1-1.3,0.3v-0.2H369.4z"/>
			<path class="st5" d="M387.2,108.9l0.8,30.2c-1.3,0.8-2.6,1.4-4.1,1.8c-1-0.4-1.9-1-2.6-1.8L381,110l6.2-1.9V108.9z"/>
			<path class="st5" d="M391,131c0-3.7,0.9-6.8,2.7-9.4c2-2.7,4.4-4,7.4-4c2.4,0,4.6,0.7,6.4,2.1c2,1.5,3,3.4,3,5.7
				c0,1.1-0.1,2.4-0.4,3.7l-13.8-0.2c0.2,4.6,3.1,6.9,8.8,6.9c1.4,0,2.9-0.5,4.7-1.5c-1.2,2.8-2.7,4.8-4.4,5.9
				c-0.6,0.1-1.1,0.1-1.6,0.2c-0.4,0-0.8,0.1-1.1,0.1c-3.1,0-5.9-0.9-8.3-2.8C392.2,135.8,391,133.6,391,131L391,131z M399.9,121.2
				L399.9,121.2c-2.4,0-3.5,1.7-3.5,5l8.5,0.2C404.5,123,402.9,121.2,399.9,121.2z"/>
		</g>
	</g>
	<g>
		<defs>
			<rect id="SVGID_13_" x="133" y="64.7" width="411.4" height="138.4"/>
		</defs>
		<clipPath id="SVGID_14_">
			<use xlink:href="#SVGID_13_"  style="overflow:visible;"/>
		</clipPath>
		<polyline class="st6" points="453.2,141.4 468.7,125.9 453.2,110.4 		"/>
	</g>
</g>
</svg>
