<?xml version="1.0" encoding="UTF-8" standalone="no"?>
<!-- Generator: Adobe Illustrator 24.3.0, SVG Export Plug-In . SVG Version: 6.00 Build 0)  -->

<svg
   xmlns:dc="http://purl.org/dc/elements/1.1/"
   xmlns:cc="http://creativecommons.org/ns#"
   xmlns:rdf="http://www.w3.org/1999/02/22-rdf-syntax-ns#"
   xmlns:svg="http://www.w3.org/2000/svg"
   xmlns="http://www.w3.org/2000/svg"
   xmlns:xlink="http://www.w3.org/1999/xlink"
   xmlns:sodipodi="http://sodipodi.sourceforge.net/DTD/sodipodi-0.dtd"
   xmlns:inkscape="http://www.inkscape.org/namespaces/inkscape"
   version="1.1"
   id="Calque_1"
   x="0px"
   y="0px"
   viewBox="0 0 1483.3 641.2"
   style="enable-background:new 0 0 1483.3 641.2;"
   xml:space="preserve"
   sodipodi:docname="Logo.svg"
   inkscape:version="0.92.5 (2060ec1f9f, 2020-04-08)"
   inkscape:export-filename="C:\Users\moi\Documents\qics-game\Assets\GraphicRessource\UI\Element-OPTIQRAFT\SVG\Logo.png"
   inkscape:export-xdpi="72"
   inkscape:export-ydpi="72"><metadata
   id="metadata81"><rdf:RDF><cc:Work
       rdf:about=""><dc:format>image/svg+xml</dc:format><dc:type
         rdf:resource="http://purl.org/dc/dcmitype/StillImage" /></cc:Work></rdf:RDF></metadata><defs
   id="defs79">
	

		<defs
   id="defs5">
			<rect
   id="SVGID_1_"
   x="74.300003"
   y="173.7"
   width="1346.6"
   height="299.89999" />
		</defs>
		<clipPath
   id="SVGID_2_">
			<use
   xlink:href="#SVGID_1_"
   style="overflow:visible"
   id="use7"
   x="0"
   y="0"
   width="100%"
   height="100%" />
		</clipPath>
		
	
			
			
			
			
			
		
				<defs
   id="defs61">
					<rect
   id="SVGID_13_"
   x="74.300003"
   y="173.7"
   width="1346.6"
   height="299.89999" />
				</defs>
				<clipPath
   id="SVGID_14_">
					<use
   xlink:href="#SVGID_13_"
   style="overflow:visible"
   id="use63"
   x="0"
   y="0"
   width="100%"
   height="100%" />
				</clipPath>
				
			
				<defs
   id="defs51">
					<rect
   id="SVGID_11_"
   x="74.300003"
   y="173.7"
   width="1346.6"
   height="299.89999" />
				</defs>
				<clipPath
   id="SVGID_12_">
					<use
   xlink:href="#SVGID_11_"
   style="overflow:visible"
   id="use53"
   x="0"
   y="0"
   width="100%"
   height="100%" />
				</clipPath>
				
			
				<defs
   id="defs41">
					<rect
   id="SVGID_9_"
   x="74.300003"
   y="173.7"
   width="1346.6"
   height="299.89999" />
				</defs>
				<clipPath
   id="SVGID_10_">
					<use
   xlink:href="#SVGID_9_"
   style="overflow:visible"
   id="use43"
   x="0"
   y="0"
   width="100%"
   height="100%" />
				</clipPath>
				
			
				<defs
   id="defs31">
					<rect
   id="SVGID_7_"
   x="74.300003"
   y="173.7"
   width="1346.6"
   height="299.89999" />
				</defs>
				<clipPath
   id="SVGID_8_">
					<use
   xlink:href="#SVGID_7_"
   style="overflow:visible"
   id="use33"
   x="0"
   y="0"
   width="100%"
   height="100%" />
				</clipPath>
				
			
				<defs
   id="defs11">
					<rect
   id="SVGID_3_"
   x="74.300003"
   y="173.7"
   width="1346.6"
   height="299.89999" />
				</defs>
				<clipPath
   id="SVGID_4_">
					<use
   xlink:href="#SVGID_3_"
   style="overflow:visible"
   id="use13"
   x="0"
   y="0"
   width="100%"
   height="100%" />
				</clipPath>
				
			
					
				
						
					</defs><sodipodi:namedview
   pagecolor="#ffffff"
   bordercolor="#666666"
   borderopacity="1"
   objecttolerance="10"
   gridtolerance="10"
   guidetolerance="10"
   inkscape:pageopacity="0"
   inkscape:pageshadow="2"
   inkscape:window-width="1776"
   inkscape:window-height="921"
   id="namedview77"
   showgrid="false"
   inkscape:zoom="0.44334206"
   inkscape:cx="785.59304"
   inkscape:cy="148.27094"
   inkscape:window-x="2391"
   inkscape:window-y="-9"
   inkscape:window-maximized="1"
   inkscape:current-layer="Calque_1" />
<style
   type="text/css"
   id="style2">
	.st0{clip-path:url(#SVGID_2_);}
	.st1{clip-path:url(#SVGID_4_);}
	.st2{clip-path:url(#SVGID_8_);fill:#E29E48;}
	.st3{clip-path:url(#SVGID_10_);fill:none;stroke:#E29E48;stroke-width:9.45;stroke-miterlimit:4.2;}
	.st4{clip-path:url(#SVGID_12_);fill:#FFFFFF;}
	.st5{clip-path:url(#SVGID_14_);fill:none;stroke:#E29E48;stroke-width:7.35;stroke-miterlimit:4.2;}
</style>
<path
   class="st3"
   d="m 1377.7,257.8 v 0.3 h -11.3 l -5.6,-49.6 h -9.5 c -3.3,16.4 -11.7,33 -25.3,50 -1,0.2 -2.3,0.4 -3.9,0.8 -1.8,0.3 -3.9,0.8 -6.3,1.6 l -3.3,18.3 h 17.2 v 81.4 c 0,6 3.2,11.1 9.7,15.5 5.5,3.3 12.3,5.4 20.4,6.4 l 17.1,-19.7 -10.5,-6.7 v -77.2 h 18.7 v -21.1 z m -162.2,-40.3 v 5.9 l -3.2,38.3 -4.1,0.9 -3.9,13.5 h 14 l -2.5,107.2 h 33.6 l 0.9,-106 h 20.7 l 1.2,-18.9 h -6 c -6.1,0 -12.5,-1.6 -19.2,-4.7 -7.7,-3.9 -11.6,-8.6 -11.6,-14 v -15.1 c 0.4,0 2.1,1 5.3,3.1 3,1.9 5.5,3.4 7.5,4.7 2.1,1.5 4.8,2.9 7.9,4.3 l 18.9,-20.3 c -18.3,-10.8 -29.2,-16.3 -32.8,-16.3 -6.1,0 -14,6.6 -23.5,19.7 z m -150.8,101.2 6.7,-44.1 h 16 c 0.9,0 1.8,0 2.8,0.1 l 2,0.3 c 6.9,0 12.5,0.8 16.7,2.3 3.3,1.3 7.5,3.8 12.7,7.5 l 0.7,68.9 c -1.2,1.4 -2.5,2.5 -3.7,3.3 -1.2,1 -2,1.6 -2.4,1.7 -2.3,1.2 -5.8,1.9 -10.5,1.9 -10.5,0 -18.9,-4.7 -25.2,-14.1 -6.3,-9.2 -9.5,-19.4 -9.5,-30.8 z m 92.3,43.7 v -92.6 c -5.8,-6.2 -13.7,-10.8 -23.7,-13.6 -9.2,-2.5 -18,-3.7 -26.7,-3.7 -12.7,0 -25.9,5.5 -39.6,16.5 -18.2,14.6 -27.3,34 -27.3,58.4 0,15.4 4.4,28.3 13.2,38.9 9.7,11.6 22.4,17.3 38.3,17.3 10.7,0 21.3,-4.4 31.9,-13.1 4.2,5.2 10.9,10.2 20.1,15.1 9.1,-4.2 17,-11.5 23.7,-22 l -7.5,-2.8 z M 969.8,263.9 C 968.3,261.7 962,257.7 951,252 l -18.7,15 -3.5,10.1 12.9,6.8 1.6,78.6 c 0.1,9.2 8.8,16.9 26.1,22.9 l 24.9,-25.6 c -6.6,0 -10.9,-0.5 -13.1,-1.6 -2,-1.1 -3.1,-2.4 -3.1,-4.1 v -71 c 0.7,-1.9 1.4,-2.8 2,-2.8 0.4,0 1.9,1.1 4.5,3.3 4.1,3.2 7.9,4.8 11.5,4.8 2.6,0 5.2,-0.6 7.9,-1.9 2.7,-1.2 4.9,-2.8 6.8,-4.7 2,-1.9 3.7,-4 5.1,-6.4 1.3,-2.2 2.3,-5.1 2.9,-8.5 -5.7,-5.7 -8.8,-8.8 -9.3,-9.2 -3.7,-3.2 -7.6,-4.8 -11.6,-4.8 -4.4,0 -9.4,2.5 -15.2,7.5 -2,2 -4,4 -6,5.9 -2,2 -4.4,4.3 -6.9,6.7 z m -106.2,86.9 c 5.7,-5.2 11.1,-15.2 16.3,-30.1 4.5,-13.2 6.8,-25.4 6.8,-36.4 0,-23.2 -10.3,-42.7 -30.8,-58.7 -19.2,-14.8 -41.9,-22.1 -68.1,-22.1 -7,0 -16,2 -26.8,5.9 -16.8,6 -30.3,14.5 -40.4,25.6 -14.1,15.5 -21.2,34.8 -21.2,58.1 0,25.9 7.6,46.8 22.7,62.7 16.6,17.6 39.4,26.4 68.2,26.4 19.7,0 36.2,-4.5 49.5,-13.6 2,1.9 5.2,4.2 9.6,6.9 4.4,2.8 9.3,5.5 14.9,8 3.2,0.4 5.9,0.7 8.1,0.7 2.4,0 4.8,-0.3 7.3,-0.9 l 12.7,-17.1 H 874.3 Z M 731.4,258.2 740.1,243 c 6.1,-11.4 14.2,-17.1 24.3,-17.1 24.3,0 45,7.2 61.9,21.5 17.9,15.6 26.9,36.5 26.9,62.5 0,13.7 -3.4,25.2 -10.1,34.5 -7.1,10 -16.7,14.9 -28.8,14.9 -25.3,0 -45.6,-7.3 -60.8,-21.9 -15,-14.7 -22.5,-33.9 -22.5,-57.6 z m -111.9,-34.4 18.7,14.8 h 7.6 l 18.1,-21.7 -17.9,-16 c -1.3,0 -2.8,-0.1 -4.4,-0.3 -1.6,-0.2 -3.3,-0.3 -5.2,-0.3 -7.7,6.6 -13.4,14.4 -16.9,23.5 z m 42.2,134.6 -3.6,-92.9 c -6.1,-4 -10.4,-6.8 -12.9,-8.4 l -6.4,-4.1 -15.5,14.7 -2.3,9.2 5.1,89.6 c 4.9,6.2 10.1,11.6 15.7,16.1 2.4,0.7 4.4,1.1 6.1,1.1 1.1,0 2.4,-0.1 4,-0.4 l 19.9,-19.7 -10.1,-5.9 z M 573,257.8 v 0.3 h -11.3 l -5.6,-49.6 h -9.5 c -3.3,16.4 -11.7,33 -25.3,50 -1,0.2 -2.3,0.4 -3.9,0.8 -1.8,0.3 -3.9,0.8 -6.3,1.6 l -3.3,18.3 H 525 v 81.4 c 0,6 3.2,11.1 9.7,15.5 5.5,3.3 12.3,5.4 20.4,6.4 l 17.1,-19.7 -10.5,-6.7 v -77.2 h 18.7 V 257.8 Z M 393,271 376.5,254.2 H 370 c -7.2,5.7 -13.8,13.4 -19.7,23.2 l 7.9,5.6 2,70.1 -12.4,9.6 v 8.8 c 4.6,0 8.4,0.8 11.2,2.4 l 1.6,54.9 c 9.8,-1.5 19.1,-5 28.1,-10.5 l 3.5,-35.1 c 0.1,0 1.3,0.1 3.7,0.3 2.5,0.1 4.9,0.1 7.3,0.1 21.2,0 38.4,-6.2 51.5,-18.7 14.4,-13.9 21.6,-33.6 21.6,-59.2 0,-13.1 -5.4,-24.8 -16.3,-35.2 -11.2,-10.4 -23.8,-15.6 -37.7,-15.6 -3.7,0 -14,4.8 -30.8,14.3 z m 1.4,14.4 c 6,-3.6 10.7,-5.3 14.1,-5.3 11.6,0 20.8,4.9 27.7,14.8 6.5,9.8 9.7,22.4 9.7,37.9 0,22.5 -7.3,33.7 -22,33.7 -8,0 -17.9,-2.3 -29.6,-6.9 z m -247.5,-8.7 6.7,-25.2 7.7,-12.1 c 5.8,-8.8 14.4,-13.2 25.9,-13.2 25.7,0 46.6,6 62.7,18.1 18.2,13.9 27.3,33.8 27.3,59.7 0,35.4 -12.6,53.1 -37.7,53.1 -29,0 -50.7,-7.7 -65.2,-23.1 -14,-14.4 -20.9,-34.6 -20.9,-60.5 z m -2.2,78.8 c 17.6,18.3 39.3,27.5 65.2,27.5 23.3,0 45.2,-9.3 65.9,-27.9 21.7,-19.4 32.5,-41.5 32.5,-66.5 0,-26.1 -11.4,-47.7 -34.3,-64.8 -20.2,-15 -41.9,-22.5 -65.3,-22.5 -23,0 -43.8,8.9 -62.4,26.8 -18.4,17.8 -27.6,37.6 -27.6,59.5 0,26.9 8.7,49.6 26,67.9 z"
   clip-path="url(#SVGID_10_)"
   id="path46"
   inkscape:connector-curvature="0"
   style="fill:none;stroke:#f26419;stroke-width:9.44999981;stroke-miterlimit:4.19999981;stroke-opacity:1" /><path
   class="st5"
   d="m 1368.6,247.1 v 0.3 h -11.3 l -5.6,-49.6 h -9.5 c -3.3,16.4 -11.7,33 -25.3,50 -1,0.2 -2.3,0.4 -3.9,0.8 -1.8,0.3 -3.9,0.8 -6.3,1.6 l -3.3,18.3 h 17.2 v 81.4 c 0,6 3.2,11.1 9.7,15.5 5.5,3.3 12.3,5.4 20.4,6.4 l 17.1,-19.7 -10.5,-6.7 v -77.2 h 18.7 v -21.1 z m -162.2,-40.2 v 5.9 l -3.2,38.3 -4.1,0.9 -3.9,13.5 h 14 l -2.5,107.2 h 33.6 l 0.9,-106 h 20.7 l 1.2,-18.9 h -6 c -6.1,0 -12.5,-1.6 -19.2,-4.7 -7.7,-3.9 -11.6,-8.6 -11.6,-14 V 214 c 0.4,0 2.1,1 5.3,3.1 3,1.9 5.5,3.4 7.5,4.7 2.1,1.5 4.8,2.9 7.9,4.3 l 18.9,-20.3 c -18.3,-10.8 -29.2,-16.3 -32.8,-16.3 -6.1,0 -14,6.6 -23.5,19.7 z m -150.8,101.1 6.7,-44.1 h 16 c 0.9,0 1.8,0 2.8,0.1 l 2,0.3 c 6.9,0 12.5,0.8 16.7,2.3 3.3,1.3 7.5,3.8 12.7,7.5 l 0.7,68.9 c -1.2,1.4 -2.5,2.5 -3.7,3.3 -1.2,1 -2,1.6 -2.4,1.7 -2.3,1.2 -5.8,1.9 -10.5,1.9 -10.5,0 -18.9,-4.7 -25.2,-14.1 -6.3,-9.2 -9.5,-19.4 -9.5,-30.8 z m 92.3,43.8 v -92.6 c -5.8,-6.2 -13.7,-10.8 -23.7,-13.6 -9.2,-2.5 -18,-3.7 -26.7,-3.7 -12.7,0 -25.9,5.5 -39.6,16.5 -18.2,14.6 -27.3,34 -27.3,58.4 0,15.4 4.4,28.3 13.2,38.9 9.7,11.6 22.4,17.3 38.3,17.3 10.7,0 21.3,-4.4 31.9,-13.1 4.2,5.2 10.9,10.2 20.1,15.1 9.1,-4.2 17,-11.5 23.7,-22 l -7.5,-2.8 z M 960.8,253.3 c -1.5,-2.2 -7.8,-6.2 -18.8,-11.9 l -18.8,14.9 -3.5,10.1 12.9,6.8 1.6,78.6 c 0.1,9.2 8.8,16.9 26.1,22.9 l 24.9,-25.6 c -6.6,0 -10.9,-0.5 -13.1,-1.6 -2,-1.1 -3.1,-2.4 -3.1,-4.1 v -71 c 0.7,-1.9 1.4,-2.8 2,-2.8 0.4,0 1.9,1.1 4.5,3.3 4.1,3.2 7.9,4.8 11.5,4.8 2.6,0 5.2,-0.6 7.9,-1.9 2.7,-1.2 4.9,-2.8 6.8,-4.7 2,-1.9 3.7,-4 5.1,-6.4 1.3,-2.2 2.3,-5.1 2.9,-8.5 -5.7,-5.7 -8.8,-8.8 -9.3,-9.2 -3.7,-3.2 -7.6,-4.8 -11.6,-4.8 -4.4,0 -9.4,2.5 -15.2,7.5 -2,2 -4,4 -6,5.9 -2,2 -4.4,4.3 -6.9,6.7 z m -106.3,86.9 c 5.7,-5.2 11.1,-15.2 16.3,-30.1 4.5,-13.2 6.8,-25.4 6.8,-36.4 0,-23.2 -10.3,-42.7 -30.8,-58.7 -19.2,-14.8 -41.9,-22.1 -68.1,-22.1 -7,0 -16,2 -26.8,5.9 -16.8,6 -30.3,14.5 -40.4,25.6 -14.1,15.5 -21.2,34.8 -21.2,58.1 0,26 7.6,46.8 22.7,62.7 16.6,17.6 39.4,26.4 68.2,26.4 19.7,0 36.2,-4.5 49.5,-13.6 2,1.9 5.2,4.2 9.6,6.9 4.4,2.8 9.3,5.5 14.9,8 3.2,0.4 5.9,0.7 8.1,0.7 2.4,0 4.8,-0.3 7.3,-0.9 l 12.7,-17.1 H 865.2 Z M 722.3,247.5 731,232.3 c 6.1,-11.4 14.2,-17.1 24.3,-17.1 24.3,0 45,7.2 61.9,21.5 17.9,15.6 26.9,36.5 26.9,62.5 0,13.7 -3.4,25.2 -10.1,34.5 -7.1,10 -16.7,14.9 -28.8,14.9 -25.3,0 -45.6,-7.3 -60.8,-21.9 -15,-14.7 -22.5,-33.9 -22.5,-57.6 z m -111.9,-34.4 18.7,14.8 h 7.6 l 18.1,-21.7 -17.9,-16 c -1.3,0 -2.8,-0.1 -4.4,-0.3 -1.6,-0.2 -3.3,-0.3 -5.2,-0.3 -7.7,6.6 -13.4,14.5 -16.9,23.5 z m 42.2,134.7 -3.6,-92.9 c -6.1,-4 -10.4,-6.8 -12.9,-8.4 l -6.4,-4.1 -15.5,14.6 -2.3,9.2 5.1,89.6 c 4.9,6.2 10.1,11.6 15.7,16.1 2.4,0.7 4.4,1.1 6.1,1.1 1.1,0 2.4,-0.1 4,-0.4 L 662.7,352.9 652.6,347 Z M 563.9,247.1 v 0.3 H 552.6 L 547,197.8 h -9.5 c -3.3,16.4 -11.7,33 -25.3,50 -1,0.2 -2.3,0.4 -3.9,0.8 -1.8,0.3 -3.9,0.8 -6.3,1.6 l -3.3,18.3 h 17.2 v 81.4 c 0,6 3.2,11.1 9.7,15.5 5.5,3.3 12.3,5.4 20.4,6.4 l 17.1,-19.7 -10.5,-6.7 v -77.2 h 18.7 V 247.1 Z M 384,260.3 367.5,243.5 H 361 c -7.2,5.7 -13.8,13.4 -19.7,23.2 l 7.9,5.6 2,70.1 -12.4,9.6 v 8.8 c 4.6,0 8.4,0.8 11.2,2.4 l 1.6,54.9 c 9.8,-1.5 19.1,-5 28.1,-10.5 l 3.5,-35.1 c 0.1,0 1.3,0.1 3.7,0.3 2.5,0.1 4.9,0.1 7.3,0.1 21.2,0 38.4,-6.2 51.5,-18.7 14.4,-13.9 21.6,-33.6 21.6,-59.2 0,-13.1 -5.4,-24.8 -16.3,-35.2 -11.2,-10.4 -23.8,-15.6 -37.7,-15.6 -3.7,0 -14,4.8 -30.8,14.3 z m 1.3,14.4 c 6,-3.6 10.7,-5.3 14.1,-5.3 11.6,0 20.8,4.9 27.7,14.8 6.5,9.8 9.7,22.4 9.7,37.9 0,22.5 -7.3,33.7 -22,33.7 -8,0 -17.9,-2.3 -29.6,-6.9 z m -247.5,-8.7 6.7,-25.2 7.7,-12.1 c 5.8,-8.8 14.4,-13.2 25.9,-13.2 25.7,0 46.6,6 62.7,18.1 18.2,13.9 27.3,33.8 27.3,59.7 0,35.4 -12.6,53.1 -37.7,53.1 -29,0 -50.7,-7.7 -65.2,-23.1 -14,-14.4 -20.9,-34.6 -20.9,-60.5 z m -2.2,78.8 c 17.6,18.3 39.3,27.5 65.2,27.5 23.3,0 45.2,-9.3 65.9,-27.9 21.7,-19.4 32.5,-41.5 32.5,-66.5 0,-26.1 -11.4,-47.7 -34.3,-64.8 -20.2,-15 -41.9,-22.5 -65.3,-22.5 -23,0 -43.8,8.9 -62.4,26.8 -18.4,17.8 -27.6,37.6 -27.6,59.5 0.1,27 8.7,49.6 26,67.9 z"
   clip-path="url(#SVGID_14_)"
   id="path66"
   inkscape:connector-curvature="0"
   style="fill:none;stroke:#f26419;stroke-width:7.3499999;stroke-miterlimit:4.19999981;stroke-opacity:1" /><path
   class="st2"
   d="m 1377.7,257.8 v 0.3 h -11.3 l -5.6,-49.6 h -9.5 c -3.3,16.4 -11.7,33 -25.3,50 -1,0.2 -2.3,0.4 -3.9,0.8 -1.8,0.3 -3.9,0.8 -6.3,1.6 l -3.3,18.3 h 17.2 v 81.4 c 0,6 3.2,11.1 9.7,15.5 5.5,3.3 12.3,5.4 20.4,6.4 l 17.1,-19.7 -10.5,-6.7 v -77.2 h 18.7 v -21.1 z m -162.2,-40.3 v 5.9 l -3.2,38.3 -4.1,0.9 -3.9,13.5 h 14 l -2.5,107.2 h 33.6 l 0.9,-106 h 20.7 l 1.2,-18.9 h -6 c -6.1,0 -12.5,-1.6 -19.2,-4.7 -7.7,-3.9 -11.6,-8.6 -11.6,-14 v -15.1 c 0.4,0 2.1,1 5.3,3.1 3,1.9 5.5,3.4 7.5,4.7 2.1,1.5 4.8,2.9 7.9,4.3 l 18.9,-20.3 c -18.3,-10.8 -29.2,-16.3 -32.8,-16.3 -6.1,0 -14,6.6 -23.5,19.7 z m -150.8,101.2 6.7,-44.1 h 16 c 0.9,0 1.8,0 2.8,0.1 l 2,0.3 c 6.9,0 12.5,0.8 16.7,2.3 3.3,1.3 7.5,3.8 12.7,7.5 l 0.7,68.9 c -1.2,1.4 -2.5,2.5 -3.7,3.3 -1.2,1 -2,1.6 -2.4,1.7 -2.3,1.2 -5.8,1.9 -10.5,1.9 -10.5,0 -18.9,-4.7 -25.2,-14.1 -6.3,-9.2 -9.5,-19.4 -9.5,-30.8 z m 92.3,43.7 v -92.6 c -5.8,-6.2 -13.7,-10.8 -23.7,-13.6 -9.2,-2.5 -18,-3.7 -26.7,-3.7 -12.7,0 -25.9,5.5 -39.6,16.5 -18.2,14.6 -27.3,34 -27.3,58.4 0,15.4 4.4,28.3 13.2,38.9 9.7,11.6 22.4,17.3 38.3,17.3 10.7,0 21.3,-4.4 31.9,-13.1 4.2,5.2 10.9,10.2 20.1,15.1 9.1,-4.2 17,-11.5 23.7,-22 l -7.5,-2.8 z M 969.8,263.9 C 968.3,261.7 962,257.7 951,252 l -18.7,15 -3.5,10.1 12.9,6.8 1.6,78.6 c 0.1,9.2 8.8,16.9 26.1,22.9 l 24.9,-25.6 c -6.6,0 -10.9,-0.5 -13.1,-1.6 -2,-1.1 -3.1,-2.4 -3.1,-4.1 v -71 c 0.7,-1.9 1.4,-2.8 2,-2.8 0.4,0 1.9,1.1 4.5,3.3 4.1,3.2 7.9,4.8 11.5,4.8 2.6,0 5.2,-0.6 7.9,-1.9 2.7,-1.2 4.9,-2.8 6.8,-4.7 2,-1.9 3.7,-4 5.1,-6.4 1.3,-2.2 2.3,-5.1 2.9,-8.5 -5.7,-5.7 -8.8,-8.8 -9.3,-9.2 -3.7,-3.2 -7.6,-4.8 -11.6,-4.8 -4.4,0 -9.4,2.5 -15.2,7.5 -2,2 -4,4 -6,5.9 -2,2 -4.4,4.3 -6.9,6.7 z m -106.2,86.9 c 5.7,-5.2 11.1,-15.2 16.3,-30.1 4.5,-13.2 6.8,-25.4 6.8,-36.4 0,-23.2 -10.3,-42.7 -30.8,-58.7 -19.2,-14.8 -41.9,-22.1 -68.1,-22.1 -7,0 -16,2 -26.8,5.9 -16.8,6 -30.3,14.5 -40.4,25.6 -14.1,15.5 -21.2,34.8 -21.2,58.1 0,25.9 7.6,46.8 22.7,62.7 16.6,17.6 39.4,26.4 68.2,26.4 19.7,0 36.2,-4.5 49.5,-13.6 2,1.9 5.2,4.2 9.6,6.9 4.4,2.8 9.3,5.5 14.9,8 3.2,0.4 5.9,0.7 8.1,0.7 2.4,0 4.8,-0.3 7.3,-0.9 l 12.7,-17.1 H 874.3 Z M 731.4,258.2 740.1,243 c 6.1,-11.4 14.2,-17.1 24.3,-17.1 24.3,0 45,7.2 61.9,21.5 17.9,15.6 26.9,36.5 26.9,62.5 0,13.7 -3.4,25.2 -10.1,34.5 -7.1,10 -16.7,14.9 -28.8,14.9 -25.3,0 -45.6,-7.3 -60.8,-21.9 -15,-14.7 -22.5,-33.9 -22.5,-57.6 z m -111.9,-34.4 18.7,14.8 h 7.6 l 18.1,-21.7 -17.9,-16 c -1.3,0 -2.8,-0.1 -4.4,-0.3 -1.6,-0.2 -3.3,-0.3 -5.2,-0.3 -7.7,6.6 -13.4,14.4 -16.9,23.5 m 42.2,134.6 -3.6,-92.9 c -6.1,-4 -10.4,-6.8 -12.9,-8.4 l -6.4,-4.1 -15.5,14.7 -2.3,9.2 5.1,89.6 c 4.9,6.2 10.1,11.6 15.7,16.1 2.4,0.7 4.4,1.1 6.1,1.1 1.1,0 2.4,-0.1 4,-0.4 l 19.9,-19.7 -10.1,-5.9 z M 573,257.8 v 0.3 h -11.3 l -5.6,-49.6 h -9.5 c -3.3,16.4 -11.7,33 -25.3,50 -1,0.2 -2.3,0.4 -3.9,0.8 -1.8,0.3 -3.9,0.8 -6.3,1.6 l -3.3,18.3 H 525 v 81.4 c 0,6 3.2,11.1 9.7,15.5 5.5,3.3 12.3,5.4 20.4,6.4 l 17.1,-19.7 -10.5,-6.7 v -77.2 h 18.7 V 257.8 Z M 393,271 376.5,254.2 H 370 c -7.2,5.7 -13.8,13.4 -19.7,23.2 l 7.9,5.6 2,70.1 -12.4,9.6 v 8.8 c 4.6,0 8.4,0.8 11.2,2.4 l 1.6,54.9 c 9.8,-1.5 19.1,-5 28.1,-10.5 l 3.5,-35.1 c 0.1,0 1.3,0.1 3.7,0.3 2.5,0.1 4.9,0.1 7.3,0.1 21.2,0 38.4,-6.2 51.5,-18.7 14.4,-13.9 21.6,-33.6 21.6,-59.2 0,-13.1 -5.4,-24.8 -16.3,-35.2 -11.2,-10.4 -23.8,-15.6 -37.7,-15.6 -3.7,0 -14,4.8 -30.8,14.3 z m 1.4,14.4 c 6,-3.6 10.7,-5.3 14.1,-5.3 11.6,0 20.8,4.9 27.7,14.8 6.5,9.8 9.7,22.4 9.7,37.9 0,22.5 -7.3,33.7 -22,33.7 -8,0 -17.9,-2.3 -29.6,-6.9 z m -247.5,-8.7 6.7,-25.2 7.7,-12.1 c 5.8,-8.8 14.4,-13.2 25.9,-13.2 25.7,0 46.6,6 62.7,18.1 18.2,13.9 27.3,33.8 27.3,59.7 0,35.4 -12.6,53.1 -37.7,53.1 -29,0 -50.7,-7.7 -65.2,-23.1 -14,-14.4 -20.9,-34.6 -20.9,-60.5 z m -2.2,78.8 c 17.6,18.3 39.3,27.5 65.2,27.5 23.3,0 45.2,-9.3 65.9,-27.9 21.7,-19.4 32.5,-41.5 32.5,-66.5 0,-26.1 -11.4,-47.7 -34.3,-64.8 -20.2,-15 -41.9,-22.5 -65.3,-22.5 -23,0 -43.8,8.9 -62.4,26.8 -18.4,17.8 -27.6,37.6 -27.6,59.5 0,26.9 8.7,49.6 26,67.9"
   clip-path="url(#SVGID_8_)"
   id="path36"
   inkscape:connector-curvature="0"
   style="fill:#f26419;fill-opacity:1" /><path
   class="st4"
   d="m 1368.6,247.1 v 0.3 h -11.3 l -5.6,-49.6 h -9.5 c -3.3,16.4 -11.7,33 -25.3,50 -1,0.2 -2.3,0.4 -3.9,0.8 -1.8,0.3 -3.9,0.8 -6.3,1.6 l -3.3,18.3 h 17.2 v 81.4 c 0,6 3.2,11.1 9.7,15.5 5.5,3.3 12.3,5.4 20.4,6.4 l 17.1,-19.7 -10.5,-6.7 v -77.2 h 18.7 v -21.1 z m -162.2,-40.2 v 5.9 l -3.2,38.3 -4.1,0.9 -3.9,13.5 h 14 l -2.5,107.2 h 33.6 l 0.9,-106 h 20.7 l 1.2,-18.9 h -6 c -6.1,0 -12.5,-1.6 -19.2,-4.7 -7.7,-3.9 -11.6,-8.6 -11.6,-14 V 214 c 0.4,0 2.1,1 5.3,3.1 3,1.9 5.5,3.4 7.5,4.7 2.1,1.5 4.8,2.9 7.9,4.3 l 18.9,-20.3 c -18.3,-10.8 -29.2,-16.3 -32.8,-16.3 -6.1,0 -14,6.6 -23.5,19.7 z m -150.8,101.1 6.7,-44.1 h 16 c 0.9,0 1.8,0 2.8,0.1 l 2,0.3 c 6.9,0 12.5,0.8 16.7,2.3 3.3,1.3 7.5,3.8 12.7,7.5 l 0.7,68.9 c -1.2,1.4 -2.5,2.5 -3.7,3.3 -1.2,1 -2,1.6 -2.4,1.7 -2.3,1.2 -5.8,1.9 -10.5,1.9 -10.5,0 -18.9,-4.7 -25.2,-14.1 -6.3,-9.2 -9.5,-19.4 -9.5,-30.8 z m 92.3,43.8 v -92.6 c -5.8,-6.2 -13.7,-10.8 -23.7,-13.6 -9.2,-2.5 -18,-3.7 -26.7,-3.7 -12.7,0 -25.9,5.5 -39.6,16.5 -18.2,14.6 -27.3,34 -27.3,58.4 0,15.4 4.4,28.3 13.2,38.9 9.7,11.6 22.4,17.3 38.3,17.3 10.7,0 21.3,-4.4 31.9,-13.1 4.2,5.2 10.9,10.2 20.1,15.1 9.1,-4.2 17,-11.5 23.7,-22 l -7.5,-2.8 z M 960.8,253.3 c -1.5,-2.2 -7.8,-6.2 -18.8,-11.9 l -18.8,14.9 -3.5,10.1 12.9,6.8 1.6,78.6 c 0.1,9.2 8.8,16.9 26.1,22.9 l 24.9,-25.6 c -6.6,0 -10.9,-0.5 -13.1,-1.6 -2,-1.1 -3.1,-2.4 -3.1,-4.1 v -71 c 0.7,-1.9 1.4,-2.8 2,-2.8 0.4,0 1.9,1.1 4.5,3.3 4.1,3.2 7.9,4.8 11.5,4.8 2.6,0 5.2,-0.6 7.9,-1.9 2.7,-1.2 4.9,-2.8 6.8,-4.7 2,-1.9 3.7,-4 5.1,-6.4 1.3,-2.2 2.3,-5.1 2.9,-8.5 -5.7,-5.7 -8.8,-8.8 -9.3,-9.2 -3.7,-3.2 -7.6,-4.8 -11.6,-4.8 -4.4,0 -9.4,2.5 -15.2,7.5 -2,2 -4,4 -6,5.9 -2,2 -4.4,4.3 -6.9,6.7 z m -106.3,86.9 c 5.7,-5.2 11.1,-15.2 16.3,-30.1 4.5,-13.2 6.8,-25.4 6.8,-36.4 0,-23.2 -10.3,-42.7 -30.8,-58.7 -19.2,-14.8 -41.9,-22.1 -68.1,-22.1 -7,0 -16,2 -26.8,5.9 -16.8,6 -30.3,14.5 -40.4,25.6 -14.1,15.5 -21.2,34.8 -21.2,58.1 0,26 7.6,46.8 22.7,62.7 16.6,17.6 39.4,26.4 68.2,26.4 19.7,0 36.2,-4.5 49.5,-13.6 2,1.9 5.2,4.2 9.6,6.9 4.4,2.8 9.3,5.5 14.9,8 3.2,0.4 5.9,0.7 8.1,0.7 2.4,0 4.8,-0.3 7.3,-0.9 l 12.7,-17.1 H 865.2 Z M 722.3,247.5 731,232.3 c 6.1,-11.4 14.2,-17.1 24.3,-17.1 24.3,0 45,7.2 61.9,21.5 17.9,15.6 26.9,36.5 26.9,62.5 0,13.7 -3.4,25.2 -10.1,34.5 -7.1,10 -16.7,14.9 -28.8,14.9 -25.3,0 -45.6,-7.3 -60.8,-21.9 -15,-14.7 -22.5,-33.9 -22.5,-57.6 z m -111.9,-34.4 18.7,14.8 h 7.6 l 18.1,-21.7 -17.9,-16 c -1.3,0 -2.8,-0.1 -4.4,-0.3 -1.6,-0.2 -3.3,-0.3 -5.2,-0.3 -7.7,6.6 -13.4,14.5 -16.9,23.5 m 42.2,134.7 -3.6,-92.9 c -6.1,-4 -10.4,-6.8 -12.9,-8.4 l -6.4,-4.1 -15.5,14.6 -2.3,9.2 5.1,89.6 c 4.9,6.2 10.1,11.6 15.7,16.1 2.4,0.7 4.4,1.1 6.1,1.1 1.1,0 2.4,-0.1 4,-0.4 L 662.7,352.9 652.6,347 Z M 563.9,247.1 v 0.3 H 552.6 L 547,197.8 h -9.5 c -3.3,16.4 -11.7,33 -25.3,50 -1,0.2 -2.3,0.4 -3.9,0.8 -1.8,0.3 -3.9,0.8 -6.3,1.6 l -3.3,18.3 h 17.2 v 81.4 c 0,6 3.2,11.1 9.7,15.5 5.5,3.3 12.3,5.4 20.4,6.4 l 17.1,-19.7 -10.5,-6.7 v -77.2 h 18.7 V 247.1 Z M 384,260.3 367.5,243.5 H 361 c -7.2,5.7 -13.8,13.4 -19.7,23.2 l 7.9,5.6 2,70.1 -12.4,9.6 v 8.8 c 4.6,0 8.4,0.8 11.2,2.4 l 1.6,54.9 c 9.8,-1.5 19.1,-5 28.1,-10.5 l 3.5,-35.1 c 0.1,0 1.3,0.1 3.7,0.3 2.5,0.1 4.9,0.1 7.3,0.1 21.2,0 38.4,-6.2 51.5,-18.7 14.4,-13.9 21.6,-33.6 21.6,-59.2 0,-13.1 -5.4,-24.8 -16.3,-35.2 -11.2,-10.4 -23.8,-15.6 -37.7,-15.6 -3.7,0 -14,4.8 -30.8,14.3 z m 1.3,14.4 c 6,-3.6 10.7,-5.3 14.1,-5.3 11.6,0 20.8,4.9 27.7,14.8 6.5,9.8 9.7,22.4 9.7,37.9 0,22.5 -7.3,33.7 -22,33.7 -8,0 -17.9,-2.3 -29.6,-6.9 z m -247.5,-8.7 6.7,-25.2 7.7,-12.1 c 5.8,-8.8 14.4,-13.2 25.9,-13.2 25.7,0 46.6,6 62.7,18.1 18.2,13.9 27.3,33.8 27.3,59.7 0,35.4 -12.6,53.1 -37.7,53.1 -29,0 -50.7,-7.7 -65.2,-23.1 -14,-14.4 -20.9,-34.6 -20.9,-60.5 z m -2.2,78.8 c 17.6,18.3 39.3,27.5 65.2,27.5 23.3,0 45.2,-9.3 65.9,-27.9 21.7,-19.4 32.5,-41.5 32.5,-66.5 0,-26.1 -11.4,-47.7 -34.3,-64.8 -20.2,-15 -41.9,-22.5 -65.3,-22.5 -23,0 -43.8,8.9 -62.4,26.8 -18.4,17.8 -27.6,37.6 -27.6,59.5 0.1,27 8.7,49.6 26,67.9"
   clip-path="url(#SVGID_12_)"
   id="path56"
   inkscape:connector-curvature="0"
   style="fill:#fdebca;fill-opacity:1" /><g
   id="g22">
							<defs
   id="defs17">
								<rect
   id="SVGID_5_"
   x="86.699997"
   y="184.8"
   width="1321.9"
   height="283.20001" />
							</defs>
							<clipPath
   id="SVGID_6_">
								<use
   xlink:href="#SVGID_5_"
   style="overflow:visible"
   id="use19"
   x="0"
   y="0"
   width="100%"
   height="100%" />
							</clipPath>
						</g>
</svg>