<?xml version="1.0" encoding="utf-8"?>
<!-- Generator: Adobe Illustrator 24.3.0, SVG Export Plug-In . SVG Version: 6.00 Build 0)  -->
<svg version="1.1" id="Calque_1" xmlns="http://www.w3.org/2000/svg" xmlns:xlink="http://www.w3.org/1999/xlink" x="0px" y="0px"
	 viewBox="0 0 630.3 768" style="enable-background:new 0 0 630.3 768;" xml:space="preserve">
<style type="text/css">
	.st0{fill:#9D93AD;}
	.st1{fill:#B4E9EF;}
	.st2{opacity:0.4;fill:#689799;}
	.st3{fill:#689799;}
	.st4{fill:#724D2F;}
	.st5{fill:#8C6239;}
	.st6{fill:#FFFFFF;}
	.st7{fill:#E2E2E2;}
	.st8{fill:#32324C;}
	.st9{fill:none;stroke:#689799;stroke-width:3;stroke-linecap:round;stroke-linejoin:round;stroke-miterlimit:10;}
	.st10{fill:none;stroke:#32324C;stroke-width:2;stroke-linecap:round;stroke-miterlimit:10;}
	.st11{fill:#29ABE2;}
	.st12{fill:#2C2C2C;}
</style>
<g>
	<path class="st5" d="M253.3,266.5l-83.1-12.7c0,0,48.7-42.6,63.8-64.1c-5.9-5.6-11-11.2-13-17c0,0-92,63.8-98.9,83.6
		c-10.8,31,125.4,73.2,125.4,73.2S254.7,277.5,253.3,266.5z"/>
</g>
<g>
	<path class="st1" d="M232.8,187.6c0,0,9.1,0.1,16.8-1.7c7.8-1.7,17.1-4.1,21.9-5.2c5.7-1.4,2.2-7-5.8-5.5c-8,1.5-9.9,1.8-9.9,1.8
		s28.7-13.3,34.4-19.5c5.2-5.7-11,0.8-24.7,5.4c0,0,25.5-17.6,25.3-22.9c-0.3-6.9-31.1,14.5-31.1,14.5s20.4-19.2,17.7-21.3
		c-2.9-2.4-26.2,14.7-26.2,14.7s12.8-14.4,10.6-15.2c-4.4-1.5-37.4,23-42.2,41.1C219.7,174,228.3,186.7,232.8,187.6z"/>
	<path class="st3" d="M262,168.6c0,0-5.8-13.7-18.7-18.5C243.3,150.1,257.2,148.7,262,168.6z"/>
	<path class="st3" d="M247.3,165.4c0,0-17.1,3-14,18C233.3,183.4,224.4,167.6,247.3,165.4z"/>
</g>
<g>
	<g>
		<g>
			<g>
				<g>
					<g>
						<g>
							<path class="st5" d="M222.9,571.2c6.1,7.6,22.7,9.8,34.7,13.5c3.2,1,6.4,2,9.7,2.8c17.1,4.6,34.8,7.4,52.7,7.7
								c29.5,0.4,59.4-6.2,87.3-23.4l-4.2-110.1l19-182.3l-49.1-17.4l-2.5-0.9l-4.6-1.6L364,259l-3.9-1.3l-8.3-2.8l-49.3,6.6l-3,0.4
								l-5.1,0.7l-2.8,0.4l-38.3,3.5C253.3,266.4,216.9,563.6,222.9,571.2z"/>
						</g>
					</g>
				</g>
			</g>
			<path class="st6" d="M267.3,587.6c17.1,4.6,34.8,7.4,52.7,7.7c-0.8-5-1.4-10.2-2-15.6c-0.3-2.7-0.5-5.4-0.7-8.1
				c-0.4-5.4-0.6-10.9-0.8-16.5c-0.1-2.7-0.1-5.4-0.1-8.1c0-5.4,0-10.9,0.2-16.5c0.1-2.7,0.2-5.4,0.3-8.1c0.2-5.4,0.5-10.9,0.9-16.4
				c0.2-2.7,0.4-5.3,0.6-8c0.4-5.4,0.9-10.9,1.5-16.4c0.3-2.7,0.6-5.4,0.9-8c0.6-5.4,1.3-10.9,2-16.4c0.3-2.7,0.7-5.4,1.1-8
				c0.7-5.5,1.5-10.9,2.4-16.3c0.4-2.7,0.8-5.4,1.3-8c0.9-5.5,1.8-10.9,2.7-16.4c0.5-2.7,0.9-5.4,1.4-8c1-5.5,2-11,3-16.4
				c0.5-2.7,1-5.4,1.6-8c1.1-5.6,2.2-11,3.3-16.4c0.6-2.7,1.1-5.4,1.7-8.1c1.2-5.6,2.4-11.1,3.6-16.4c0.6-2.7,1.2-5.4,1.8-8.1
				c1.3-5.7,2.6-11.2,3.9-16.5c0.7-2.8,1.3-5.5,2-8.1c1.4-5.8,2.8-11.4,4.1-16.5c0.7-2.8,1.4-5.5,2.1-8.1c1.9-7.2,3.6-13.5,5.1-18.7
				l-3.9-1.3l-8.3-2.8l-49.3,6.6l-3,0.4c-0.9,4.6-1.8,9.3-2.6,14c-0.5,2.6-1,5.3-1.4,7.9c-0.9,5.3-1.8,10.6-2.7,15.9
				c-0.4,2.7-0.9,5.3-1.3,8c-0.9,5.3-1.7,10.6-2.5,15.9c-0.4,2.7-0.8,5.3-1.2,8c-0.8,5.3-1.5,10.6-2.3,15.9c-0.4,2.7-0.7,5.3-1.1,8
				c-0.7,5.3-1.4,10.7-2.1,16c-0.3,2.7-0.7,5.4-1,8c-0.7,5.4-1.3,10.7-1.9,16c-0.3,2.7-0.6,5.4-0.9,8c-0.6,5.4-1.2,10.7-1.7,16
				c-0.3,2.7-0.6,5.4-0.8,8.1c-0.5,5.4-1.1,10.8-1.5,16c-0.2,2.7-0.5,5.4-0.7,8.1c-0.5,5.4-0.9,10.8-1.4,16.1
				c-0.2,2.7-0.4,5.4-0.6,8.1c-0.4,5.5-0.8,10.9-1.2,16.1c-0.2,2.7-0.4,5.5-0.5,8.1c-0.4,5.6-0.7,10.9-1,16.1
				c-0.2,2.8-0.3,5.5-0.4,8.1c-0.3,5.7-0.5,11.1-0.7,16.2c-0.1,2.8-0.2,5.5-0.3,8.2c-0.2,5.9-0.3,11.3-0.4,16.3
				c0,2.9-0.1,5.7-0.1,8.2C267.1,578.8,267.2,583.6,267.3,587.6z"/>
			<g>
				<g>
					<path class="st7" d="M295.5,283.8c12.9,1.7,27.2,2.5,42.9,2.5c5.9,0,12.1-0.1,18.4-0.4c0.7-2.8,1.4-5.5,2.1-8.1
						c-23.6,1-44.2,0.3-62-1.9C296.5,278.5,296,281.1,295.5,283.8z"/>
				</g>
				<g>
					<path class="st7" d="M291.5,307.7c14.1,2,29.9,3,47.4,3c3.8,0,7.8-0.1,11.8-0.1c0.7-2.8,1.3-5.5,2-8.1
						c-22.8,0.6-42.6-0.3-59.9-2.7C292.3,302.4,291.9,305,291.5,307.7z"/>
				</g>
				<g>
					<path class="st7" d="M287.8,331.6c15.2,2.4,32.4,3.5,51.7,3.5c1.8,0,3.6,0,5.5,0c0.6-2.7,1.2-5.4,1.8-8.1
						c-22,0.3-41.1-0.8-57.9-3.4C288.6,326.3,288.2,328.9,287.8,331.6z"/>
				</g>
				<g>
					<path class="st7" d="M284.4,355.5c16.1,2.7,34.5,4,55.3,4c0.6-2.7,1.1-5.4,1.7-8.1c-21.2,0.1-39.7-1.3-55.9-4
						C285.2,350.2,284.8,352.9,284.4,355.5z"/>
				</g>
				<g>
					<path class="st7" d="M281.4,379.5c15.6,2.8,33.4,4.3,53.5,4.5c0.5-2.7,1-5.4,1.6-8c-20.4-0.2-38.3-1.7-54-4.5
						C282,374.2,281.7,376.9,281.4,379.5z"/>
				</g>
				<g>
					<path class="st7" d="M278.6,403.5c15.2,2.8,32.4,4.4,51.8,4.9c0.5-2.7,0.9-5.4,1.4-8c-19.7-0.4-37.1-2-52.3-4.9
						C279.2,398.2,278.9,400.9,278.6,403.5z"/>
				</g>
				<g>
					<path class="st7" d="M276,427.6c14.8,2.9,31.5,4.6,50.3,5.2c0.4-2.7,0.8-5.4,1.3-8c-19.1-0.6-36-2.3-50.8-5.2
						C276.6,422.2,276.3,424.9,276,427.6z"/>
				</g>
				<g>
					<path class="st7" d="M273.8,451.7c14.5,2.9,30.8,4.7,49.2,5.5c0.3-2.7,0.7-5.4,1.1-8c-18.6-0.7-35-2.6-49.5-5.5
						C274.2,446.3,274,449,273.8,451.7z"/>
				</g>
				<g>
					<path class="st7" d="M271.8,475.9c14.3,2.9,30.3,4.8,48.3,5.7c0.3-2.7,0.6-5.4,0.9-8c-18.2-0.9-34.3-2.8-48.6-5.8
						C272.2,470.5,272,473.2,271.8,475.9z"/>
				</g>
				<g>
					<path class="st7" d="M270,500.1c14.2,3,30.1,4.9,48,5.9c0.2-2.7,0.4-5.3,0.6-8c-18-1-33.9-3-48-6
						C270.4,494.7,270.2,497.4,270,500.1z"/>
				</g>
				<g>
					<path class="st7" d="M268.6,524.4c14.2,3,30.2,5,48.1,6.1c0.1-2.7,0.2-5.4,0.3-8.1c-18-1.1-33.9-3.1-48-6.2
						C268.9,519,268.8,521.7,268.6,524.4z"/>
				</g>
				<g>
					<path class="st7" d="M267.6,548.7c14.5,3.1,30.7,5.2,49.1,6.3c-0.1-2.7-0.1-5.4-0.1-8.1c-18.3-1.1-34.4-3.2-48.7-6.4
						C267.8,543.4,267.7,546.1,267.6,548.7z"/>
				</g>
				<g>
					<path class="st7" d="M267.1,573.2c15,3.2,31.9,5.3,51,6.4c-0.3-2.7-0.5-5.4-0.7-8.1c-18.9-1.2-35.6-3.3-50.2-6.5
						C267.2,567.9,267.1,570.7,267.1,573.2z"/>
				</g>
			</g>
		</g>
	</g>
</g>
<g>
	<g>
		<g>
			<path class="st1" d="M398.8,556.9c0,0-9.5,4-15.7,9.8c-6.2,5.8-12.5,12.1-16.3,15.7c-4.5,4.4,1,6.7,6.2,4.3
				c7.9-3.7,10.2-7.6,10.2-7.6s-19.3,27.8-21.1,36.7c-1.7,8.1,9.7-6.7,19.8-18.4c0,0-13.9,30.1-10.9,34.8c4,6.2,20.8-30.2,20.8-30.2
				s-8.4,28.7-4.8,29.3c4,0.6,16.2-27.8,16.2-27.8s-4,20.2-1.5,19.7c4.9-1,22-41.5,16.6-60.8C418.2,562.4,403.4,555.3,398.8,556.9z"
				/>
		</g>
		<g>
			<path class="st5" d="M411.2,492.1c-7.9,35.5-14.5,65.3-14.5,65.3c4.7,8,13.3,10.3,22,12.6c26.2-55.7,37.3-103.6,41.9-141.5
				c0.9-42.8-38.5-149-38.5-149c-27.3-3.2-35.7,34-35.7,34c18.8,62.3,32.7,120.2,33,121.1C418.1,440.6,418,461.8,411.2,492.1z"/>
		</g>
	</g>
</g>
<g>
	<g>
		<path class="st0" d="M256.9,124.6c0,0-9.7,9-6.2,33.2c3.6,24.3,10.4,26.8,10.4,26.8S271.2,130.9,256.9,124.6z"/>
	</g>
</g>
<g>
	<g>
		<path class="st1" d="M253.4,154c0,0.7,0,1.4,0,2.1c0,0.3,0,0.6,0,0.9c0,0.7-0.1,1.4,0.1,2c3.8,15.9-1,24.4,3.8,32.9
			c4.6,8.1,6,16.1,6.1,17.1c0.5,3.6,0.7,2.6,1.2,6.1c0.4,2.4,0.8,5.8,1.2,7.3c1.5,4.7,2.8,10,5.9,13.5c7.4,8.4,15.1,10.3,26.6,7.8
			c9.4-2,19.9-4.5,29.6-7.4c0.5-0.1,0.9-0.3,1.4-0.4c7.8-2.3,15.1-4.9,21-7.7c0.8-1.2,1.5-2.3,2.2-3.5c6.2-10.4,9.8-22.1,12-34.3
			c0.9-4.8,1.5-9.7,1.9-14.7c0-0.4,0.1-0.8,0.2-1.1c0-4.5-0.1-9-0.2-13.4c-0.7-32.1-26.5-57.2-57.1-55.5
			c-24.1,1.4-47.1,11.3-52.9,24.4C254.3,135.4,253.4,143.9,253.4,154z"/>
	</g>
</g>
<path class="st2" d="M337.8,185.9c0,0-20.7,2.5-23.1,7.5c-4.5,9.3-12,43.7-12,43.7S336.4,215.9,337.8,185.9z"/>
<path class="st2" d="M258.6,194.4c0,0,4.9,4,7.3,9.7c3.7,8.5,0.8,10.1,4.9,34.1c0,0-4.7-14.6-4.9-15.8
	C263.5,204.2,258.7,193.4,258.6,194.4z"/>
<g>
	<g>
		<path class="st1" d="M307.3,234.6l-1.1,18.7l1.1,12.4c17.9,11.5,44.8-5.2,44.8-5.2l0.8-42.6c-9.4-4.8-27.4,2.2-38.5,5.7
			C309.2,225.2,307.3,234.6,307.3,234.6z"/>
	</g>
</g>
<g>
	<g>
		<path class="st3" d="M306.1,232.2l1.2,31.7c35.3-8.5,35.3-47.5,35.3-47.5l-27.9,7.7C308.6,226.3,306.1,232.2,306.1,232.2z"/>
	</g>
</g>
<g>
	<g>
		<path class="st0" d="M352.6,225.6c6.2-10,9.8-21.1,12-32.7c-3.4,0.1-7.9,1.1-13.7,3.8C350.9,196.7,349.6,213.7,352.6,225.6z"/>
	</g>
</g>
<g>
	<g>
		<path class="st0" d="M263.5,206.6c-0.5,2.6-0.3,3.2,0,4.9c0.5,2.5,0.7,4.7,1.6,5.9c1.8-2.1,0.3-7.7,10-5c5.1,1.4,8.1,3.8,14.3,1.5
			c5.3-2,12.1-5.3,18.5-5.8c0.1,0,0.1,0,0.2,0c8.3-0.5,3.7,13.9-1.5,20.1c-9.2,11-10.9,13.9-24.2,12.6c-9.8-0.9-12-8.8-16.4-18.3
			c-0.1-0.1,0,0,0,2.4c4.5,16.3,0.3,24,12.2,32.9c4.9,3.7,11,12.2,31-0.8c6.9-4.5,15.1-11,20.2-17.5c4.1-5.2,13.9-19.9,14.6-26.8
			c2.4-23.1,1.6-41.4,1.6-41.4l-7.4,0c0,0-2.4,20.9-9.8,33.7c-4.8-2.9-12.3-6.5-20.5-6.6c-4.3,0-8.4,1.1-12.1,2.8
			c-9.3,4.2-15.1,6.3-25,4.2C266,204.5,264.6,204.4,263.5,206.6z"/>
	</g>
</g>
<path class="st9" d="M282.3,173.1c0,0-6.1,22.3-4.9,27.6c0.9,3.8,10.5-3.9,10.5-3.9"/>
<path class="st2" d="M275.7,170.8c0,0-0.4,23.7-12.3,18.9c-11.9-4.9,4-8.7,4-8.7S273.1,179.7,275.7,170.8z"/>
<path class="st2" d="M254.1,172.4c0,0-0.9-20.9,11.9-17.4c12.8,3.5-3.7,7.9-3.7,7.9S256.3,164.5,254.1,172.4z"/>
<path class="st2" d="M288.5,169.3c0,0,4,30.2,17.2,20.8c13.2-9.4-5.9-10.1-5.9-10.1S292.9,179.9,288.5,169.3z"/>
<path class="st2" d="M317.5,168c0,0-7.2-24.8-21.5-15.5c-14.3,9.3,7.6,7.8,7.6,7.8S311.6,159.5,317.5,168z"/>
<g>
	<g>
		<path class="st0" d="M315.1,152.8c0,0-6.6-7.6-13.6-7.4c-6.5,0.2-9.8,3.7-11.3,6c-0.6,1-0.5,2.6,0.4,3.7l0,0
			c1,1.3,2.6,1.6,3.4,0.5C296.5,152.1,303.1,146.3,315.1,152.8z"/>
	</g>
</g>
<g>
	<g>
		<path class="st0" d="M254.3,153.2c-0.2,0.8-0.5,1.7-0.7,2.6c-0.1,0.4-0.2,0.8-0.3,1.1c7.8-3.1,13.1-0.5,15.6,1.5
			c0.3,0.2,0.6,0.3,0.9,0.4c0.9,0.1,2-0.5,2.6-1.6c0.8-1.2,0.7-2.7-0.1-3.5c-1.8-1.7-5.8-4.2-12.7-2.8
			C257.8,151.3,256,152.2,254.3,153.2z"/>
	</g>
</g>
<g>
	<g>
		<g>
			<g>
				<path class="st8" d="M287.1,171.9c0-8.5,6.8-15.4,15.3-15.4c8.5,0,15.4,6.8,15.4,15.3c0,8.5-6.8,15.4-15.3,15.4
					C294.1,187.3,287.2,180.4,287.1,171.9z M289.7,171.9c0,7.1,5.8,12.8,12.9,12.8c7.1,0,12.8-5.8,12.8-12.9
					c0-7.1-5.8-12.8-12.9-12.8C295.4,159,289.6,164.8,289.7,171.9z"/>
			</g>
		</g>
	</g>
	<g>
		<g>
			<g>
				
					<rect x="316" y="165.5" transform="matrix(0.9967 -8.073927e-02 8.073927e-02 0.9967 -12.3839 27.2322)" class="st8" width="29.1" height="2.5"/>
			</g>
		</g>
	</g>
	<g>
		<g>
			<g>
				<path class="st8" d="M287.8,170.7l1.5-2.1c-2.5-1.7-8.5-3.9-13.7,0.1l1.5,2C282.2,166.9,287.6,170.6,287.8,170.7z"/>
			</g>
		</g>
	</g>
	<g>
		<g>
			<g>
				<path class="st8" d="M247.1,172c0-8.5,6.8-15.4,15.3-15.4c8.5,0,15.4,6.8,15.4,15.3c0,8.5-6.8,15.4-15.3,15.4
					C254,187.4,247.1,180.5,247.1,172z M249.6,172c0,7.1,5.8,12.8,12.9,12.8c7.1,0,12.8-5.8,12.8-12.9c0-7.1-5.8-12.8-12.9-12.8
					C255.3,159.2,249.6,164.9,249.6,172z"/>
			</g>
		</g>
	</g>
</g>
<path class="st0" d="M258.8,134.6C258.9,134.6,258.9,134.6,258.8,134.6c14.8,22.5,55.5-6.6,55.5-6.6c2.2,10.4,16.6,10.1,20.3,18.9
	c3.7,8.8,3.3,25,3.3,25l7.5,0c9.6-14,21.1-6.2,21.1-6.2c5.4-27.6-2.3-46.7-28.5-62c-4.4-2.6-9.1-4.3-14.1-5.5c0,0,0,0,0,0
	c-8-3.6-38.8,1.2-59.9,17C244.1,129.9,258.1,133.6,258.8,134.6z"/>
<g>
	<g>
		<g>
			<path class="st1" d="M347.9,170.8c0,0,10.1-15.4,18.6-6.5c9.4,9.7,2.3,42.9-16.7,42.3L347.9,170.8z"/>
		</g>
	</g>
	<g>
		<g>
			<path class="st3" d="M349.3,199.3c0.8,0,1.6-0.8,1.7-1.9c1.5-16.8,9.5-19.4,9.8-19.5c0.9-0.3,1.4-1.4,1.2-2.5
				c-0.2-1.1-1.1-1.8-2-1.6c-0.4,0.1-10.6,3.2-12.4,23.1c-0.1,1.1,0.6,2.2,1.5,2.3C349.2,199.3,349.2,199.3,349.3,199.3z"/>
		</g>
	</g>
	<g>
		<g>
			<path class="st3" d="M360,188.7c0.4,0,0.8-0.2,1.1-0.5c0.7-0.8,0.7-2.1,0.1-2.9c-0.1-0.2-3.5-4.7-9-3.2c-0.9,0.2-1.5,1.4-1.3,2.5
				c0.2,1.1,1.1,1.8,2,1.6c3.6-1,5.7,1.9,5.7,1.9C359,188.4,359.5,188.7,360,188.7z"/>
		</g>
	</g>
</g>
<path class="st9" d="M299.5,218.7c0,0-11-1.2-23.1,4.9"/>
<path class="st12" d="M308.5,169.1c0,0-0.9,4.7-7.2,6c-6.2,1.2-7-5.6-7-5.6S299.5,176.1,308.5,169.1z"/>
<path class="st12" d="M272.5,172.2c0,0-0.9,4.7-7.2,6c-6.2,1.2-7-5.6-7-5.6S263.4,179.2,272.5,172.2z"/>
</svg>
