%YAML 1.1
%TAG !u! tag:unity3d.com,2011:
--- !u!1 &1366469315363132853
GameObject:
  m_ObjectHideFlags: 0
  m_CorrespondingSourceObject: {fileID: 0}
  m_PrefabInstance: {fileID: 0}
  m_PrefabAsset: {fileID: 0}
  serializedVersion: 6
  m_Component:
  - component: {fileID: 4685994667205575293}
  - component: {fileID: 994351386539803560}
  - component: {fileID: 2782338940721356290}
  m_Layer: 0
  m_Name: ProbaText
  m_TagString: Untagged
  m_Icon: {fileID: 0}
  m_NavMeshLayer: 0
  m_StaticEditorFlags: 0
  m_IsActive: 1
--- !u!224 &4685994667205575293
RectTransform:
  m_ObjectHideFlags: 0
  m_CorrespondingSourceObject: {fileID: 0}
  m_PrefabInstance: {fileID: 0}
  m_PrefabAsset: {fileID: 0}
  m_GameObject: {fileID: 1366469315363132853}
  m_LocalRotation: {x: 0, y: 0, z: 0, w: 1}
  m_LocalPosition: {x: 0, y: 0, z: 0}
  m_LocalScale: {x: 1, y: 1, z: 1}
  m_Children: []
  m_Father: {fileID: 1729553632065507703}
  m_RootOrder: 2
  m_LocalEulerAnglesHint: {x: 0, y: 0, z: 0}
  m_AnchorMin: {x: 0.5, y: 0.5}
  m_AnchorMax: {x: 0.5, y: 0.5}
  m_AnchoredPosition: {x: 2.1818, y: 0}
  m_SizeDelta: {x: 3.1511, y: 1.0227}
  m_Pivot: {x: 0.5, y: 0.5}
--- !u!23 &994351386539803560
MeshRenderer:
  m_ObjectHideFlags: 0
  m_CorrespondingSourceObject: {fileID: 0}
  m_PrefabInstance: {fileID: 0}
  m_PrefabAsset: {fileID: 0}
  m_GameObject: {fileID: 1366469315363132853}
  m_Enabled: 1
  m_CastShadows: 0
  m_ReceiveShadows: 0
  m_DynamicOccludee: 1
  m_MotionVectors: 1
  m_LightProbeUsage: 1
  m_ReflectionProbeUsage: 1
  m_RayTracingMode: 2
  m_RayTraceProcedural: 0
  m_RenderingLayerMask: 257
  m_RendererPriority: 0
  m_Materials:
  - {fileID: -7921609463366074899, guid: e5747017cd37c2e40a69b2fe88d3a32c, type: 2}
  m_StaticBatchInfo:
    firstSubMesh: 0
    subMeshCount: 0
  m_StaticBatchRoot: {fileID: 0}
  m_ProbeAnchor: {fileID: 0}
  m_LightProbeVolumeOverride: {fileID: 0}
  m_ScaleInLightmap: 1
  m_ReceiveGI: 1
  m_PreserveUVs: 0
  m_IgnoreNormalsForChartDetection: 0
  m_ImportantGI: 0
  m_StitchLightmapSeams: 1
  m_SelectedEditorRenderState: 3
  m_MinimumChartSize: 4
  m_AutoUVMaxDistance: 0.5
  m_AutoUVMaxAngle: 89
  m_LightmapParameters: {fileID: 0}
  m_SortingLayerID: 0
  m_SortingLayer: 0
  m_SortingOrder: 0
  m_AdditionalVertexStreams: {fileID: 0}
--- !u!114 &2782338940721356290
MonoBehaviour:
  m_ObjectHideFlags: 0
  m_CorrespondingSourceObject: {fileID: 0}
  m_PrefabInstance: {fileID: 0}
  m_PrefabAsset: {fileID: 0}
  m_GameObject: {fileID: 1366469315363132853}
  m_Enabled: 1
  m_EditorHideFlags: 0
  m_Script: {fileID: 11500000, guid: 9541d86e2fd84c1d9990edf0852d74ab, type: 3}
  m_Name: 
  m_EditorClassIdentifier: 
  m_Material: {fileID: 0}
  m_Color: {r: 1, g: 1, b: 1, a: 1}
  m_RaycastTarget: 1
  m_RaycastPadding: {x: 0, y: 0, z: 0, w: 0}
  m_Maskable: 1
  m_OnCullStateChanged:
    m_PersistentCalls:
      m_Calls: []
  m_text: +98,25%
  m_isRightToLeft: 0
  m_fontAsset: {fileID: 11400000, guid: e5747017cd37c2e40a69b2fe88d3a32c, type: 2}
  m_sharedMaterial: {fileID: -7921609463366074899, guid: e5747017cd37c2e40a69b2fe88d3a32c, type: 2}
  m_fontSharedMaterials: []
  m_fontMaterial: {fileID: 0}
  m_fontMaterials: []
  m_fontColor32:
    serializedVersion: 2
    rgba: 4294967295
  m_fontColor: {r: 1, g: 1, b: 1, a: 1}
  m_enableVertexGradient: 0
  m_colorMode: 3
  m_fontColorGradient:
    topLeft: {r: 1, g: 1, b: 1, a: 1}
    topRight: {r: 1, g: 1, b: 1, a: 1}
    bottomLeft: {r: 1, g: 1, b: 1, a: 1}
    bottomRight: {r: 1, g: 1, b: 1, a: 1}
  m_fontColorGradientPreset: {fileID: 0}
  m_spriteAsset: {fileID: 0}
  m_tintAllSprites: 0
  m_StyleSheet: {fileID: 0}
  m_TextStyleHashCode: -1183493901
  m_overrideHtmlColors: 0
  m_faceColor:
    serializedVersion: 2
    rgba: 4294967295
  m_fontSize: 8
  m_fontSizeBase: 8
  m_fontWeight: 400
  m_enableAutoSizing: 0
  m_fontSizeMin: 18
  m_fontSizeMax: 72
  m_fontStyle: 0
  m_HorizontalAlignment: 1
  m_VerticalAlignment: 256
  m_textAlignment: 65535
  m_characterSpacing: 0
  m_wordSpacing: 0
  m_lineSpacing: 0
  m_lineSpacingMax: 0
  m_paragraphSpacing: 0
  m_charWidthMaxAdj: 0
  m_enableWordWrapping: 1
  m_wordWrappingRatios: 0.4
  m_overflowMode: 0
  m_linkedTextComponent: {fileID: 0}
  parentLinkedComponent: {fileID: 0}
  m_enableKerning: 1
  m_enableExtraPadding: 0
  checkPaddingRequired: 0
  m_isRichText: 1
  m_parseCtrlCharacters: 1
  m_isOrthographic: 0
  m_isCullingEnabled: 0
  m_horizontalMapping: 0
  m_verticalMapping: 0
  m_uvLineOffset: 0
  m_geometrySortingOrder: 0
  m_IsTextObjectScaleStatic: 0
  m_VertexBufferAutoSizeReduction: 1
  m_useMaxVisibleDescender: 1
  m_pageToDisplay: 1
  m_margin: {x: -0.30215228, y: 0, z: 0, w: 0}
  m_isUsingLegacyAnimationComponent: 0
  m_isVolumetricText: 0
  m_hasFontAssetChanged: 0
  m_renderer: {fileID: 994351386539803560}
  m_maskType: 0
  _SortingLayer: 0
  _SortingLayerID: 0
  _SortingOrder: 0
--- !u!1 &3979051218770276314
GameObject:
  m_ObjectHideFlags: 0
  m_CorrespondingSourceObject: {fileID: 0}
  m_PrefabInstance: {fileID: 0}
  m_PrefabAsset: {fileID: 0}
  serializedVersion: 6
  m_Component:
  - component: {fileID: 1729553632065507703}
  - component: {fileID: 3979051218770276316}
  - component: {fileID: 7346904130649084357}
  - component: {fileID: 11605755139363164}
  - component: {fileID: 6566073633882019717}
  m_Layer: 0
  m_Name: FaketonForStateDisplayer
  m_TagString: Faketon
  m_Icon: {fileID: 0}
  m_NavMeshLayer: 0
  m_StaticEditorFlags: 0
  m_IsActive: 1
--- !u!4 &1729553632065507703
Transform:
  m_ObjectHideFlags: 0
  m_CorrespondingSourceObject: {fileID: 0}
  m_PrefabInstance: {fileID: 0}
  m_PrefabAsset: {fileID: 0}
  m_GameObject: {fileID: 3979051218770276314}
  m_LocalRotation: {x: 0, y: 0, z: 0, w: 1}
  m_LocalPosition: {x: 0, y: 0, z: 0}
  m_LocalScale: {x: 1, y: 1, z: 1}
  m_Children:
  - {fileID: 220605620137613201}
  - {fileID: 2560654990118246821}
  - {fileID: 4685994667205575293}
  - {fileID: 2860838263391732899}
  - {fileID: 8063658279192771028}
  - {fileID: 5222885706989009191}
  - {fileID: 2591137181640607765}
  - {fileID: 4262761502676262804}
  - {fileID: 7416360744689893268}
  - {fileID: 7067264064199871464}
  - {fileID: 2134248921360436015}
  m_Father: {fileID: 0}
  m_RootOrder: 0
  m_LocalEulerAnglesHint: {x: 0, y: 0, z: 0}
--- !u!114 &3979051218770276316
MonoBehaviour:
  m_ObjectHideFlags: 0
  m_CorrespondingSourceObject: {fileID: 0}
  m_PrefabInstance: {fileID: 0}
  m_PrefabAsset: {fileID: 0}
  m_GameObject: {fileID: 3979051218770276314}
  m_Enabled: 1
  m_EditorHideFlags: 0
  m_Script: {fileID: 11500000, guid: 518e274e823aa21439af41f7449206f1, type: 3}
  m_Name: 
  m_EditorClassIdentifier: 
  numberOfSpatialModes: 9
  spatialModes:
  - {fileID: 220605620137613206}
  - {fileID: 2560654990118246818}
  - {fileID: 2860838263391732900}
  - {fileID: 8063658279192771027}
  - {fileID: 5222885706989009184}
  - {fileID: 2591137181640607762}
  - {fileID: 4262761502676262803}
  - {fileID: 7416360744689893267}
  - {fileID: 7067264064199871471}
  - {fileID: 2134248921360436008}
  stateList: []
  _lineMaterial: {fileID: 2100000, guid: 8546f52d04bb69d4f89f18557675c3f9, type: 2}
--- !u!120 &7346904130649084357
LineRenderer:
  m_ObjectHideFlags: 0
  m_CorrespondingSourceObject: {fileID: 0}
  m_PrefabInstance: {fileID: 0}
  m_PrefabAsset: {fileID: 0}
  m_GameObject: {fileID: 3979051218770276314}
  m_Enabled: 1
  m_CastShadows: 0
  m_ReceiveShadows: 0
  m_DynamicOccludee: 1
  m_MotionVectors: 0
  m_LightProbeUsage: 0
  m_ReflectionProbeUsage: 0
  m_RayTracingMode: 0
  m_RayTraceProcedural: 0
  m_RenderingLayerMask: 257
  m_RendererPriority: 0
  m_Materials:
  - {fileID: -5256741288533652348, guid: 47c00e5129b176644b1d4ed3c954bed6, type: 2}
  m_StaticBatchInfo:
    firstSubMesh: 0
    subMeshCount: 0
  m_StaticBatchRoot: {fileID: 0}
  m_ProbeAnchor: {fileID: 0}
  m_LightProbeVolumeOverride: {fileID: 0}
  m_ScaleInLightmap: 1
  m_ReceiveGI: 1
  m_PreserveUVs: 0
  m_IgnoreNormalsForChartDetection: 0
  m_ImportantGI: 0
  m_StitchLightmapSeams: 1
  m_SelectedEditorRenderState: 3
  m_MinimumChartSize: 4
  m_AutoUVMaxDistance: 0.5
  m_AutoUVMaxAngle: 89
  m_LightmapParameters: {fileID: 0}
  m_SortingLayerID: 0
  m_SortingLayer: 0
  m_SortingOrder: 0
  m_Positions:
  - {x: 0, y: 0, z: 0}
  - {x: 0, y: 0, z: 1}
  m_Parameters:
    serializedVersion: 3
    widthMultiplier: 1
    widthCurve:
      serializedVersion: 2
      m_Curve:
      - serializedVersion: 3
        time: 0
        value: 1
        inSlope: 0
        outSlope: 0
        tangentMode: 0
        weightedMode: 0
        inWeight: 0.33333334
        outWeight: 0.33333334
      m_PreInfinity: 2
      m_PostInfinity: 2
      m_RotationOrder: 4
    colorGradient:
      serializedVersion: 2
      key0: {r: 1, g: 1, b: 1, a: 1}
      key1: {r: 1, g: 1, b: 1, a: 1}
      key2: {r: 0, g: 0, b: 0, a: 0}
      key3: {r: 0, g: 0, b: 0, a: 0}
      key4: {r: 0, g: 0, b: 0, a: 0}
      key5: {r: 0, g: 0, b: 0, a: 0}
      key6: {r: 0, g: 0, b: 0, a: 0}
      key7: {r: 0, g: 0, b: 0, a: 0}
      ctime0: 0
      ctime1: 65535
      ctime2: 0
      ctime3: 0
      ctime4: 0
      ctime5: 0
      ctime6: 0
      ctime7: 0
      atime0: 0
      atime1: 65535
      atime2: 0
      atime3: 0
      atime4: 0
      atime5: 0
      atime6: 0
      atime7: 0
      m_Mode: 0
      m_NumColorKeys: 2
      m_NumAlphaKeys: 2
    numCornerVertices: 0
    numCapVertices: 0
    alignment: 0
    textureMode: 0
    shadowBias: 0.5
    generateLightingData: 0
  m_UseWorldSpace: 1
  m_Loop: 0
--- !u!114 &11605755139363164
MonoBehaviour:
  m_ObjectHideFlags: 0
  m_CorrespondingSourceObject: {fileID: 0}
  m_PrefabInstance: {fileID: 0}
  m_PrefabAsset: {fileID: 0}
  m_GameObject: {fileID: 3979051218770276314}
  m_Enabled: 1
  m_EditorHideFlags: 0
  m_Script: {fileID: 11500000, guid: 4d6d839efcb69f849b77a40fa90b0927, type: 3}
  m_Name: 
  m_EditorClassIdentifier: 
--- !u!23 &6566073633882019717
MeshRenderer:
  m_ObjectHideFlags: 0
  m_CorrespondingSourceObject: {fileID: 0}
  m_PrefabInstance: {fileID: 0}
  m_PrefabAsset: {fileID: 0}
  m_GameObject: {fileID: 3979051218770276314}
  m_Enabled: 1
  m_CastShadows: 1
  m_ReceiveShadows: 1
  m_DynamicOccludee: 1
  m_MotionVectors: 1
  m_LightProbeUsage: 1
  m_ReflectionProbeUsage: 1
  m_RayTracingMode: 2
  m_RayTraceProcedural: 0
  m_RenderingLayerMask: 257
  m_RendererPriority: 0
  m_Materials:
  - {fileID: 0}
  m_StaticBatchInfo:
    firstSubMesh: 0
    subMeshCount: 0
  m_StaticBatchRoot: {fileID: 0}
  m_ProbeAnchor: {fileID: 0}
  m_LightProbeVolumeOverride: {fileID: 0}
  m_ScaleInLightmap: 1
  m_ReceiveGI: 1
  m_PreserveUVs: 0
  m_IgnoreNormalsForChartDetection: 0
  m_ImportantGI: 0
  m_StitchLightmapSeams: 1
  m_SelectedEditorRenderState: 3
  m_MinimumChartSize: 4
  m_AutoUVMaxDistance: 0.5
  m_AutoUVMaxAngle: 89
  m_LightmapParameters: {fileID: 0}
  m_SortingLayerID: 0
  m_SortingLayer: 0
  m_SortingOrder: 0
  m_AdditionalVertexStreams: {fileID: 0}
--- !u!1001 &207556189333517121
PrefabInstance:
  m_ObjectHideFlags: 0
  serializedVersion: 2
  m_Modification:
    m_TransformParent: {fileID: 1729553632065507703}
    m_Modifications:
    - target: {fileID: 5375619695730952806, guid: 68da59d7e43ccb641a59f73727a830a8, type: 3}
      propertyPath: m_RootOrder
      value: 5
      objectReference: {fileID: 0}
    - target: {fileID: 5375619695730952806, guid: 68da59d7e43ccb641a59f73727a830a8, type: 3}
      propertyPath: m_LocalPosition.x
      value: -3
      objectReference: {fileID: 0}
    - target: {fileID: 5375619695730952806, guid: 68da59d7e43ccb641a59f73727a830a8, type: 3}
      propertyPath: m_LocalPosition.y
      value: 0
      objectReference: {fileID: 0}
    - target: {fileID: 5375619695730952806, guid: 68da59d7e43ccb641a59f73727a830a8, type: 3}
      propertyPath: m_LocalPosition.z
      value: 0
      objectReference: {fileID: 0}
    - target: {fileID: 5375619695730952806, guid: 68da59d7e43ccb641a59f73727a830a8, type: 3}
      propertyPath: m_LocalRotation.w
      value: 1
      objectReference: {fileID: 0}
    - target: {fileID: 5375619695730952806, guid: 68da59d7e43ccb641a59f73727a830a8, type: 3}
      propertyPath: m_LocalRotation.x
      value: -0
      objectReference: {fileID: 0}
    - target: {fileID: 5375619695730952806, guid: 68da59d7e43ccb641a59f73727a830a8, type: 3}
      propertyPath: m_LocalRotation.y
      value: -0
      objectReference: {fileID: 0}
    - target: {fileID: 5375619695730952806, guid: 68da59d7e43ccb641a59f73727a830a8, type: 3}
      propertyPath: m_LocalRotation.z
      value: -0
      objectReference: {fileID: 0}
    - target: {fileID: 5375619695730952806, guid: 68da59d7e43ccb641a59f73727a830a8, type: 3}
      propertyPath: m_LocalEulerAnglesHint.x
      value: 0
      objectReference: {fileID: 0}
    - target: {fileID: 5375619695730952806, guid: 68da59d7e43ccb641a59f73727a830a8, type: 3}
      propertyPath: m_LocalEulerAnglesHint.y
      value: 0
      objectReference: {fileID: 0}
    - target: {fileID: 5375619695730952806, guid: 68da59d7e43ccb641a59f73727a830a8, type: 3}
      propertyPath: m_LocalEulerAnglesHint.z
      value: 0
      objectReference: {fileID: 0}
    - target: {fileID: 5375619695730952807, guid: 68da59d7e43ccb641a59f73727a830a8, type: 3}
      propertyPath: m_Name
      value: mode (4)
      objectReference: {fileID: 0}
    m_RemovedComponents: []
  m_SourcePrefab: {fileID: 100100000, guid: 68da59d7e43ccb641a59f73727a830a8, type: 3}
--- !u!4 &5222885706989009191 stripped
Transform:
  m_CorrespondingSourceObject: {fileID: 5375619695730952806, guid: 68da59d7e43ccb641a59f73727a830a8, type: 3}
  m_PrefabInstance: {fileID: 207556189333517121}
  m_PrefabAsset: {fileID: 0}
--- !u!114 &5222885706989009184 stripped
MonoBehaviour:
  m_CorrespondingSourceObject: {fileID: 5375619695730952801, guid: 68da59d7e43ccb641a59f73727a830a8, type: 3}
  m_PrefabInstance: {fileID: 207556189333517121}
  m_PrefabAsset: {fileID: 0}
  m_GameObject: {fileID: 0}
  m_Enabled: 1
  m_EditorHideFlags: 0
  m_Script: {fileID: 11500000, guid: b8f4dff4852baab4f8b664de3a255700, type: 3}
  m_Name: 
  m_EditorClassIdentifier: 
--- !u!1001 &2701552685258060722
PrefabInstance:
  m_ObjectHideFlags: 0
  serializedVersion: 2
  m_Modification:
    m_TransformParent: {fileID: 1729553632065507703}
    m_Modifications:
    - target: {fileID: 5375619695730952806, guid: 68da59d7e43ccb641a59f73727a830a8, type: 3}
      propertyPath: m_RootOrder
      value: 4
      objectReference: {fileID: 0}
    - target: {fileID: 5375619695730952806, guid: 68da59d7e43ccb641a59f73727a830a8, type: 3}
      propertyPath: m_LocalPosition.x
      value: -2.25
      objectReference: {fileID: 0}
    - target: {fileID: 5375619695730952806, guid: 68da59d7e43ccb641a59f73727a830a8, type: 3}
      propertyPath: m_LocalPosition.y
      value: 0
      objectReference: {fileID: 0}
    - target: {fileID: 5375619695730952806, guid: 68da59d7e43ccb641a59f73727a830a8, type: 3}
      propertyPath: m_LocalPosition.z
      value: 0
      objectReference: {fileID: 0}
    - target: {fileID: 5375619695730952806, guid: 68da59d7e43ccb641a59f73727a830a8, type: 3}
      propertyPath: m_LocalRotation.w
      value: 1
      objectReference: {fileID: 0}
    - target: {fileID: 5375619695730952806, guid: 68da59d7e43ccb641a59f73727a830a8, type: 3}
      propertyPath: m_LocalRotation.x
      value: -0
      objectReference: {fileID: 0}
    - target: {fileID: 5375619695730952806, guid: 68da59d7e43ccb641a59f73727a830a8, type: 3}
      propertyPath: m_LocalRotation.y
      value: -0
      objectReference: {fileID: 0}
    - target: {fileID: 5375619695730952806, guid: 68da59d7e43ccb641a59f73727a830a8, type: 3}
      propertyPath: m_LocalRotation.z
      value: -0
      objectReference: {fileID: 0}
    - target: {fileID: 5375619695730952806, guid: 68da59d7e43ccb641a59f73727a830a8, type: 3}
      propertyPath: m_LocalEulerAnglesHint.x
      value: 0
      objectReference: {fileID: 0}
    - target: {fileID: 5375619695730952806, guid: 68da59d7e43ccb641a59f73727a830a8, type: 3}
      propertyPath: m_LocalEulerAnglesHint.y
      value: 0
      objectReference: {fileID: 0}
    - target: {fileID: 5375619695730952806, guid: 68da59d7e43ccb641a59f73727a830a8, type: 3}
      propertyPath: m_LocalEulerAnglesHint.z
      value: 0
      objectReference: {fileID: 0}
    - target: {fileID: 5375619695730952807, guid: 68da59d7e43ccb641a59f73727a830a8, type: 3}
      propertyPath: m_Name
      value: mode (3)
      objectReference: {fileID: 0}
    m_RemovedComponents: []
  m_SourcePrefab: {fileID: 100100000, guid: 68da59d7e43ccb641a59f73727a830a8, type: 3}
--- !u!4 &8063658279192771028 stripped
Transform:
  m_CorrespondingSourceObject: {fileID: 5375619695730952806, guid: 68da59d7e43ccb641a59f73727a830a8, type: 3}
  m_PrefabInstance: {fileID: 2701552685258060722}
  m_PrefabAsset: {fileID: 0}
--- !u!114 &8063658279192771027 stripped
MonoBehaviour:
  m_CorrespondingSourceObject: {fileID: 5375619695730952801, guid: 68da59d7e43ccb641a59f73727a830a8, type: 3}
  m_PrefabInstance: {fileID: 2701552685258060722}
  m_PrefabAsset: {fileID: 0}
  m_GameObject: {fileID: 0}
  m_Enabled: 1
  m_EditorHideFlags: 0
  m_Script: {fileID: 11500000, guid: b8f4dff4852baab4f8b664de3a255700, type: 3}
  m_Name: 
  m_EditorClassIdentifier: 
--- !u!1001 &2921145767402357134
PrefabInstance:
  m_ObjectHideFlags: 0
  serializedVersion: 2
  m_Modification:
    m_TransformParent: {fileID: 1729553632065507703}
    m_Modifications:
    - target: {fileID: 5375619695730952806, guid: 68da59d7e43ccb641a59f73727a830a8, type: 3}
      propertyPath: m_RootOrder
      value: 9
      objectReference: {fileID: 0}
    - target: {fileID: 5375619695730952806, guid: 68da59d7e43ccb641a59f73727a830a8, type: 3}
      propertyPath: m_LocalPosition.x
      value: -6
      objectReference: {fileID: 0}
    - target: {fileID: 5375619695730952806, guid: 68da59d7e43ccb641a59f73727a830a8, type: 3}
      propertyPath: m_LocalPosition.y
      value: 0
      objectReference: {fileID: 0}
    - target: {fileID: 5375619695730952806, guid: 68da59d7e43ccb641a59f73727a830a8, type: 3}
      propertyPath: m_LocalPosition.z
      value: 0
      objectReference: {fileID: 0}
    - target: {fileID: 5375619695730952806, guid: 68da59d7e43ccb641a59f73727a830a8, type: 3}
      propertyPath: m_LocalRotation.w
      value: 1
      objectReference: {fileID: 0}
    - target: {fileID: 5375619695730952806, guid: 68da59d7e43ccb641a59f73727a830a8, type: 3}
      propertyPath: m_LocalRotation.x
      value: -0
      objectReference: {fileID: 0}
    - target: {fileID: 5375619695730952806, guid: 68da59d7e43ccb641a59f73727a830a8, type: 3}
      propertyPath: m_LocalRotation.y
      value: -0
      objectReference: {fileID: 0}
    - target: {fileID: 5375619695730952806, guid: 68da59d7e43ccb641a59f73727a830a8, type: 3}
      propertyPath: m_LocalRotation.z
      value: -0
      objectReference: {fileID: 0}
    - target: {fileID: 5375619695730952806, guid: 68da59d7e43ccb641a59f73727a830a8, type: 3}
      propertyPath: m_LocalEulerAnglesHint.x
      value: 0
      objectReference: {fileID: 0}
    - target: {fileID: 5375619695730952806, guid: 68da59d7e43ccb641a59f73727a830a8, type: 3}
      propertyPath: m_LocalEulerAnglesHint.y
      value: 0
      objectReference: {fileID: 0}
    - target: {fileID: 5375619695730952806, guid: 68da59d7e43ccb641a59f73727a830a8, type: 3}
      propertyPath: m_LocalEulerAnglesHint.z
      value: 0
      objectReference: {fileID: 0}
    - target: {fileID: 5375619695730952807, guid: 68da59d7e43ccb641a59f73727a830a8, type: 3}
      propertyPath: m_Name
      value: mode (8)
      objectReference: {fileID: 0}
    m_RemovedComponents: []
  m_SourcePrefab: {fileID: 100100000, guid: 68da59d7e43ccb641a59f73727a830a8, type: 3}
--- !u!114 &7067264064199871471 stripped
MonoBehaviour:
  m_CorrespondingSourceObject: {fileID: 5375619695730952801, guid: 68da59d7e43ccb641a59f73727a830a8, type: 3}
  m_PrefabInstance: {fileID: 2921145767402357134}
  m_PrefabAsset: {fileID: 0}
  m_GameObject: {fileID: 0}
  m_Enabled: 1
  m_EditorHideFlags: 0
  m_Script: {fileID: 11500000, guid: b8f4dff4852baab4f8b664de3a255700, type: 3}
  m_Name: 
  m_EditorClassIdentifier: 
--- !u!4 &7067264064199871464 stripped
Transform:
  m_CorrespondingSourceObject: {fileID: 5375619695730952806, guid: 68da59d7e43ccb641a59f73727a830a8, type: 3}
  m_PrefabInstance: {fileID: 2921145767402357134}
  m_PrefabAsset: {fileID: 0}
--- !u!1001 &3203815719167292914
PrefabInstance:
  m_ObjectHideFlags: 0
  serializedVersion: 2
  m_Modification:
    m_TransformParent: {fileID: 1729553632065507703}
    m_Modifications:
    - target: {fileID: 5375619695730952806, guid: 68da59d7e43ccb641a59f73727a830a8, type: 3}
      propertyPath: m_RootOrder
      value: 8
      objectReference: {fileID: 0}
    - target: {fileID: 5375619695730952806, guid: 68da59d7e43ccb641a59f73727a830a8, type: 3}
      propertyPath: m_LocalPosition.x
      value: -5.25
      objectReference: {fileID: 0}
    - target: {fileID: 5375619695730952806, guid: 68da59d7e43ccb641a59f73727a830a8, type: 3}
      propertyPath: m_LocalPosition.y
      value: 0
      objectReference: {fileID: 0}
    - target: {fileID: 5375619695730952806, guid: 68da59d7e43ccb641a59f73727a830a8, type: 3}
      propertyPath: m_LocalPosition.z
      value: 0
      objectReference: {fileID: 0}
    - target: {fileID: 5375619695730952806, guid: 68da59d7e43ccb641a59f73727a830a8, type: 3}
      propertyPath: m_LocalRotation.w
      value: 1
      objectReference: {fileID: 0}
    - target: {fileID: 5375619695730952806, guid: 68da59d7e43ccb641a59f73727a830a8, type: 3}
      propertyPath: m_LocalRotation.x
      value: -0
      objectReference: {fileID: 0}
    - target: {fileID: 5375619695730952806, guid: 68da59d7e43ccb641a59f73727a830a8, type: 3}
      propertyPath: m_LocalRotation.y
      value: -0
      objectReference: {fileID: 0}
    - target: {fileID: 5375619695730952806, guid: 68da59d7e43ccb641a59f73727a830a8, type: 3}
      propertyPath: m_LocalRotation.z
      value: -0
      objectReference: {fileID: 0}
    - target: {fileID: 5375619695730952806, guid: 68da59d7e43ccb641a59f73727a830a8, type: 3}
      propertyPath: m_LocalEulerAnglesHint.x
      value: 0
      objectReference: {fileID: 0}
    - target: {fileID: 5375619695730952806, guid: 68da59d7e43ccb641a59f73727a830a8, type: 3}
      propertyPath: m_LocalEulerAnglesHint.y
      value: 0
      objectReference: {fileID: 0}
    - target: {fileID: 5375619695730952806, guid: 68da59d7e43ccb641a59f73727a830a8, type: 3}
      propertyPath: m_LocalEulerAnglesHint.z
      value: 0
      objectReference: {fileID: 0}
    - target: {fileID: 5375619695730952807, guid: 68da59d7e43ccb641a59f73727a830a8, type: 3}
      propertyPath: m_Name
      value: mode (7)
      objectReference: {fileID: 0}
    m_RemovedComponents: []
  m_SourcePrefab: {fileID: 100100000, guid: 68da59d7e43ccb641a59f73727a830a8, type: 3}
--- !u!114 &7416360744689893267 stripped
MonoBehaviour:
  m_CorrespondingSourceObject: {fileID: 5375619695730952801, guid: 68da59d7e43ccb641a59f73727a830a8, type: 3}
  m_PrefabInstance: {fileID: 3203815719167292914}
  m_PrefabAsset: {fileID: 0}
  m_GameObject: {fileID: 0}
  m_Enabled: 1
  m_EditorHideFlags: 0
  m_Script: {fileID: 11500000, guid: b8f4dff4852baab4f8b664de3a255700, type: 3}
  m_Name: 
  m_EditorClassIdentifier: 
--- !u!4 &7416360744689893268 stripped
Transform:
  m_CorrespondingSourceObject: {fileID: 5375619695730952806, guid: 68da59d7e43ccb641a59f73727a830a8, type: 3}
  m_PrefabInstance: {fileID: 3203815719167292914}
  m_PrefabAsset: {fileID: 0}
--- !u!1001 &5302344270171266551
PrefabInstance:
  m_ObjectHideFlags: 0
  serializedVersion: 2
  m_Modification:
    m_TransformParent: {fileID: 1729553632065507703}
    m_Modifications:
    - target: {fileID: 5375619695730952806, guid: 68da59d7e43ccb641a59f73727a830a8, type: 3}
      propertyPath: m_RootOrder
      value: 0
      objectReference: {fileID: 0}
    - target: {fileID: 5375619695730952806, guid: 68da59d7e43ccb641a59f73727a830a8, type: 3}
      propertyPath: m_LocalPosition.x
      value: 0
      objectReference: {fileID: 0}
    - target: {fileID: 5375619695730952806, guid: 68da59d7e43ccb641a59f73727a830a8, type: 3}
      propertyPath: m_LocalPosition.y
      value: 0
      objectReference: {fileID: 0}
    - target: {fileID: 5375619695730952806, guid: 68da59d7e43ccb641a59f73727a830a8, type: 3}
      propertyPath: m_LocalPosition.z
      value: 0
      objectReference: {fileID: 0}
    - target: {fileID: 5375619695730952806, guid: 68da59d7e43ccb641a59f73727a830a8, type: 3}
      propertyPath: m_LocalRotation.w
      value: 1
      objectReference: {fileID: 0}
    - target: {fileID: 5375619695730952806, guid: 68da59d7e43ccb641a59f73727a830a8, type: 3}
      propertyPath: m_LocalRotation.x
      value: -0
      objectReference: {fileID: 0}
    - target: {fileID: 5375619695730952806, guid: 68da59d7e43ccb641a59f73727a830a8, type: 3}
      propertyPath: m_LocalRotation.y
      value: -0
      objectReference: {fileID: 0}
    - target: {fileID: 5375619695730952806, guid: 68da59d7e43ccb641a59f73727a830a8, type: 3}
      propertyPath: m_LocalRotation.z
      value: -0
      objectReference: {fileID: 0}
    - target: {fileID: 5375619695730952806, guid: 68da59d7e43ccb641a59f73727a830a8, type: 3}
      propertyPath: m_LocalEulerAnglesHint.x
      value: 0
      objectReference: {fileID: 0}
    - target: {fileID: 5375619695730952806, guid: 68da59d7e43ccb641a59f73727a830a8, type: 3}
      propertyPath: m_LocalEulerAnglesHint.y
      value: 0
      objectReference: {fileID: 0}
    - target: {fileID: 5375619695730952806, guid: 68da59d7e43ccb641a59f73727a830a8, type: 3}
      propertyPath: m_LocalEulerAnglesHint.z
      value: 0
      objectReference: {fileID: 0}
    - target: {fileID: 5375619695730952807, guid: 68da59d7e43ccb641a59f73727a830a8, type: 3}
      propertyPath: m_Name
      value: mode
      objectReference: {fileID: 0}
    m_RemovedComponents: []
  m_SourcePrefab: {fileID: 100100000, guid: 68da59d7e43ccb641a59f73727a830a8, type: 3}
--- !u!4 &220605620137613201 stripped
Transform:
  m_CorrespondingSourceObject: {fileID: 5375619695730952806, guid: 68da59d7e43ccb641a59f73727a830a8, type: 3}
  m_PrefabInstance: {fileID: 5302344270171266551}
  m_PrefabAsset: {fileID: 0}
--- !u!114 &220605620137613206 stripped
MonoBehaviour:
  m_CorrespondingSourceObject: {fileID: 5375619695730952801, guid: 68da59d7e43ccb641a59f73727a830a8, type: 3}
  m_PrefabInstance: {fileID: 5302344270171266551}
  m_PrefabAsset: {fileID: 0}
  m_GameObject: {fileID: 0}
  m_Enabled: 1
  m_EditorHideFlags: 0
  m_Script: {fileID: 11500000, guid: b8f4dff4852baab4f8b664de3a255700, type: 3}
  m_Name: 
  m_EditorClassIdentifier: 
--- !u!1001 &6270252819535626569
PrefabInstance:
  m_ObjectHideFlags: 0
  serializedVersion: 2
  m_Modification:
    m_TransformParent: {fileID: 1729553632065507703}
    m_Modifications:
    - target: {fileID: 5375619695730952806, guid: 68da59d7e43ccb641a59f73727a830a8, type: 3}
      propertyPath: m_RootOrder
      value: 10
      objectReference: {fileID: 0}
    - target: {fileID: 5375619695730952806, guid: 68da59d7e43ccb641a59f73727a830a8, type: 3}
      propertyPath: m_LocalPosition.x
      value: -6.75
      objectReference: {fileID: 0}
    - target: {fileID: 5375619695730952806, guid: 68da59d7e43ccb641a59f73727a830a8, type: 3}
      propertyPath: m_LocalPosition.y
      value: 0
      objectReference: {fileID: 0}
    - target: {fileID: 5375619695730952806, guid: 68da59d7e43ccb641a59f73727a830a8, type: 3}
      propertyPath: m_LocalPosition.z
      value: 0
      objectReference: {fileID: 0}
    - target: {fileID: 5375619695730952806, guid: 68da59d7e43ccb641a59f73727a830a8, type: 3}
      propertyPath: m_LocalRotation.w
      value: 1
      objectReference: {fileID: 0}
    - target: {fileID: 5375619695730952806, guid: 68da59d7e43ccb641a59f73727a830a8, type: 3}
      propertyPath: m_LocalRotation.x
      value: -0
      objectReference: {fileID: 0}
    - target: {fileID: 5375619695730952806, guid: 68da59d7e43ccb641a59f73727a830a8, type: 3}
      propertyPath: m_LocalRotation.y
      value: -0
      objectReference: {fileID: 0}
    - target: {fileID: 5375619695730952806, guid: 68da59d7e43ccb641a59f73727a830a8, type: 3}
      propertyPath: m_LocalRotation.z
      value: -0
      objectReference: {fileID: 0}
    - target: {fileID: 5375619695730952806, guid: 68da59d7e43ccb641a59f73727a830a8, type: 3}
      propertyPath: m_LocalEulerAnglesHint.x
      value: 0
      objectReference: {fileID: 0}
    - target: {fileID: 5375619695730952806, guid: 68da59d7e43ccb641a59f73727a830a8, type: 3}
      propertyPath: m_LocalEulerAnglesHint.y
      value: 0
      objectReference: {fileID: 0}
    - target: {fileID: 5375619695730952806, guid: 68da59d7e43ccb641a59f73727a830a8, type: 3}
      propertyPath: m_LocalEulerAnglesHint.z
      value: 0
      objectReference: {fileID: 0}
    - target: {fileID: 5375619695730952807, guid: 68da59d7e43ccb641a59f73727a830a8, type: 3}
      propertyPath: m_Name
      value: mode (9)
      objectReference: {fileID: 0}
    m_RemovedComponents: []
  m_SourcePrefab: {fileID: 100100000, guid: 68da59d7e43ccb641a59f73727a830a8, type: 3}
--- !u!4 &2134248921360436015 stripped
Transform:
  m_CorrespondingSourceObject: {fileID: 5375619695730952806, guid: 68da59d7e43ccb641a59f73727a830a8, type: 3}
  m_PrefabInstance: {fileID: 6270252819535626569}
  m_PrefabAsset: {fileID: 0}
--- !u!114 &2134248921360436008 stripped
MonoBehaviour:
  m_CorrespondingSourceObject: {fileID: 5375619695730952801, guid: 68da59d7e43ccb641a59f73727a830a8, type: 3}
  m_PrefabInstance: {fileID: 6270252819535626569}
  m_PrefabAsset: {fileID: 0}
  m_GameObject: {fileID: 0}
  m_Enabled: 1
  m_EditorHideFlags: 0
  m_Script: {fileID: 11500000, guid: b8f4dff4852baab4f8b664de3a255700, type: 3}
  m_Name: 
  m_EditorClassIdentifier: 
--- !u!1001 &7571482828202267587
PrefabInstance:
  m_ObjectHideFlags: 0
  serializedVersion: 2
  m_Modification:
    m_TransformParent: {fileID: 1729553632065507703}
    m_Modifications:
    - target: {fileID: 5375619695730952806, guid: 68da59d7e43ccb641a59f73727a830a8, type: 3}
      propertyPath: m_RootOrder
      value: 1
      objectReference: {fileID: 0}
    - target: {fileID: 5375619695730952806, guid: 68da59d7e43ccb641a59f73727a830a8, type: 3}
      propertyPath: m_LocalPosition.x
      value: -0.75
      objectReference: {fileID: 0}
    - target: {fileID: 5375619695730952806, guid: 68da59d7e43ccb641a59f73727a830a8, type: 3}
      propertyPath: m_LocalPosition.y
      value: 0
      objectReference: {fileID: 0}
    - target: {fileID: 5375619695730952806, guid: 68da59d7e43ccb641a59f73727a830a8, type: 3}
      propertyPath: m_LocalPosition.z
      value: 0
      objectReference: {fileID: 0}
    - target: {fileID: 5375619695730952806, guid: 68da59d7e43ccb641a59f73727a830a8, type: 3}
      propertyPath: m_LocalRotation.w
      value: 1
      objectReference: {fileID: 0}
    - target: {fileID: 5375619695730952806, guid: 68da59d7e43ccb641a59f73727a830a8, type: 3}
      propertyPath: m_LocalRotation.x
      value: -0
      objectReference: {fileID: 0}
    - target: {fileID: 5375619695730952806, guid: 68da59d7e43ccb641a59f73727a830a8, type: 3}
      propertyPath: m_LocalRotation.y
      value: -0
      objectReference: {fileID: 0}
    - target: {fileID: 5375619695730952806, guid: 68da59d7e43ccb641a59f73727a830a8, type: 3}
      propertyPath: m_LocalRotation.z
      value: -0
      objectReference: {fileID: 0}
    - target: {fileID: 5375619695730952806, guid: 68da59d7e43ccb641a59f73727a830a8, type: 3}
      propertyPath: m_LocalEulerAnglesHint.x
      value: 0
      objectReference: {fileID: 0}
    - target: {fileID: 5375619695730952806, guid: 68da59d7e43ccb641a59f73727a830a8, type: 3}
      propertyPath: m_LocalEulerAnglesHint.y
      value: 0
      objectReference: {fileID: 0}
    - target: {fileID: 5375619695730952806, guid: 68da59d7e43ccb641a59f73727a830a8, type: 3}
      propertyPath: m_LocalEulerAnglesHint.z
      value: 0
      objectReference: {fileID: 0}
    - target: {fileID: 5375619695730952807, guid: 68da59d7e43ccb641a59f73727a830a8, type: 3}
      propertyPath: m_Name
      value: mode (1)
      objectReference: {fileID: 0}
    m_RemovedComponents: []
  m_SourcePrefab: {fileID: 100100000, guid: 68da59d7e43ccb641a59f73727a830a8, type: 3}
--- !u!114 &2560654990118246818 stripped
MonoBehaviour:
  m_CorrespondingSourceObject: {fileID: 5375619695730952801, guid: 68da59d7e43ccb641a59f73727a830a8, type: 3}
  m_PrefabInstance: {fileID: 7571482828202267587}
  m_PrefabAsset: {fileID: 0}
  m_GameObject: {fileID: 0}
  m_Enabled: 1
  m_EditorHideFlags: 0
  m_Script: {fileID: 11500000, guid: b8f4dff4852baab4f8b664de3a255700, type: 3}
  m_Name: 
  m_EditorClassIdentifier: 
--- !u!4 &2560654990118246821 stripped
Transform:
  m_CorrespondingSourceObject: {fileID: 5375619695730952806, guid: 68da59d7e43ccb641a59f73727a830a8, type: 3}
  m_PrefabInstance: {fileID: 7571482828202267587}
  m_PrefabAsset: {fileID: 0}
--- !u!1001 &7597458393969574515
PrefabInstance:
  m_ObjectHideFlags: 0
  serializedVersion: 2
  m_Modification:
    m_TransformParent: {fileID: 1729553632065507703}
    m_Modifications:
    - target: {fileID: 5375619695730952806, guid: 68da59d7e43ccb641a59f73727a830a8, type: 3}
      propertyPath: m_RootOrder
      value: 6
      objectReference: {fileID: 0}
    - target: {fileID: 5375619695730952806, guid: 68da59d7e43ccb641a59f73727a830a8, type: 3}
      propertyPath: m_LocalPosition.x
      value: -3.75
      objectReference: {fileID: 0}
    - target: {fileID: 5375619695730952806, guid: 68da59d7e43ccb641a59f73727a830a8, type: 3}
      propertyPath: m_LocalPosition.y
      value: 0
      objectReference: {fileID: 0}
    - target: {fileID: 5375619695730952806, guid: 68da59d7e43ccb641a59f73727a830a8, type: 3}
      propertyPath: m_LocalPosition.z
      value: 0
      objectReference: {fileID: 0}
    - target: {fileID: 5375619695730952806, guid: 68da59d7e43ccb641a59f73727a830a8, type: 3}
      propertyPath: m_LocalRotation.w
      value: 1
      objectReference: {fileID: 0}
    - target: {fileID: 5375619695730952806, guid: 68da59d7e43ccb641a59f73727a830a8, type: 3}
      propertyPath: m_LocalRotation.x
      value: -0
      objectReference: {fileID: 0}
    - target: {fileID: 5375619695730952806, guid: 68da59d7e43ccb641a59f73727a830a8, type: 3}
      propertyPath: m_LocalRotation.y
      value: -0
      objectReference: {fileID: 0}
    - target: {fileID: 5375619695730952806, guid: 68da59d7e43ccb641a59f73727a830a8, type: 3}
      propertyPath: m_LocalRotation.z
      value: -0
      objectReference: {fileID: 0}
    - target: {fileID: 5375619695730952806, guid: 68da59d7e43ccb641a59f73727a830a8, type: 3}
      propertyPath: m_LocalEulerAnglesHint.x
      value: 0
      objectReference: {fileID: 0}
    - target: {fileID: 5375619695730952806, guid: 68da59d7e43ccb641a59f73727a830a8, type: 3}
      propertyPath: m_LocalEulerAnglesHint.y
      value: 0
      objectReference: {fileID: 0}
    - target: {fileID: 5375619695730952806, guid: 68da59d7e43ccb641a59f73727a830a8, type: 3}
      propertyPath: m_LocalEulerAnglesHint.z
      value: 0
      objectReference: {fileID: 0}
    - target: {fileID: 5375619695730952807, guid: 68da59d7e43ccb641a59f73727a830a8, type: 3}
      propertyPath: m_Name
      value: mode (5)
      objectReference: {fileID: 0}
    m_RemovedComponents: []
  m_SourcePrefab: {fileID: 100100000, guid: 68da59d7e43ccb641a59f73727a830a8, type: 3}
--- !u!114 &2591137181640607762 stripped
MonoBehaviour:
  m_CorrespondingSourceObject: {fileID: 5375619695730952801, guid: 68da59d7e43ccb641a59f73727a830a8, type: 3}
  m_PrefabInstance: {fileID: 7597458393969574515}
  m_PrefabAsset: {fileID: 0}
  m_GameObject: {fileID: 0}
  m_Enabled: 1
  m_EditorHideFlags: 0
  m_Script: {fileID: 11500000, guid: b8f4dff4852baab4f8b664de3a255700, type: 3}
  m_Name: 
  m_EditorClassIdentifier: 
--- !u!4 &2591137181640607765 stripped
Transform:
  m_CorrespondingSourceObject: {fileID: 5375619695730952806, guid: 68da59d7e43ccb641a59f73727a830a8, type: 3}
  m_PrefabInstance: {fileID: 7597458393969574515}
  m_PrefabAsset: {fileID: 0}
--- !u!1001 &7866016821502824133
PrefabInstance:
  m_ObjectHideFlags: 0
  serializedVersion: 2
  m_Modification:
    m_TransformParent: {fileID: 1729553632065507703}
    m_Modifications:
    - target: {fileID: 5375619695730952806, guid: 68da59d7e43ccb641a59f73727a830a8, type: 3}
      propertyPath: m_RootOrder
      value: 3
      objectReference: {fileID: 0}
    - target: {fileID: 5375619695730952806, guid: 68da59d7e43ccb641a59f73727a830a8, type: 3}
      propertyPath: m_LocalPosition.x
      value: -1.5
      objectReference: {fileID: 0}
    - target: {fileID: 5375619695730952806, guid: 68da59d7e43ccb641a59f73727a830a8, type: 3}
      propertyPath: m_LocalPosition.y
      value: 0
      objectReference: {fileID: 0}
    - target: {fileID: 5375619695730952806, guid: 68da59d7e43ccb641a59f73727a830a8, type: 3}
      propertyPath: m_LocalPosition.z
      value: 0
      objectReference: {fileID: 0}
    - target: {fileID: 5375619695730952806, guid: 68da59d7e43ccb641a59f73727a830a8, type: 3}
      propertyPath: m_LocalRotation.w
      value: 1
      objectReference: {fileID: 0}
    - target: {fileID: 5375619695730952806, guid: 68da59d7e43ccb641a59f73727a830a8, type: 3}
      propertyPath: m_LocalRotation.x
      value: -0
      objectReference: {fileID: 0}
    - target: {fileID: 5375619695730952806, guid: 68da59d7e43ccb641a59f73727a830a8, type: 3}
      propertyPath: m_LocalRotation.y
      value: -0
      objectReference: {fileID: 0}
    - target: {fileID: 5375619695730952806, guid: 68da59d7e43ccb641a59f73727a830a8, type: 3}
      propertyPath: m_LocalRotation.z
      value: -0
      objectReference: {fileID: 0}
    - target: {fileID: 5375619695730952806, guid: 68da59d7e43ccb641a59f73727a830a8, type: 3}
      propertyPath: m_LocalEulerAnglesHint.x
      value: 0
      objectReference: {fileID: 0}
    - target: {fileID: 5375619695730952806, guid: 68da59d7e43ccb641a59f73727a830a8, type: 3}
      propertyPath: m_LocalEulerAnglesHint.y
      value: 0
      objectReference: {fileID: 0}
    - target: {fileID: 5375619695730952806, guid: 68da59d7e43ccb641a59f73727a830a8, type: 3}
      propertyPath: m_LocalEulerAnglesHint.z
      value: 0
      objectReference: {fileID: 0}
    - target: {fileID: 5375619695730952807, guid: 68da59d7e43ccb641a59f73727a830a8, type: 3}
      propertyPath: m_Name
      value: mode (2)
      objectReference: {fileID: 0}
    m_RemovedComponents: []
  m_SourcePrefab: {fileID: 100100000, guid: 68da59d7e43ccb641a59f73727a830a8, type: 3}
--- !u!114 &2860838263391732900 stripped
MonoBehaviour:
  m_CorrespondingSourceObject: {fileID: 5375619695730952801, guid: 68da59d7e43ccb641a59f73727a830a8, type: 3}
  m_PrefabInstance: {fileID: 7866016821502824133}
  m_PrefabAsset: {fileID: 0}
  m_GameObject: {fileID: 0}
  m_Enabled: 1
  m_EditorHideFlags: 0
  m_Script: {fileID: 11500000, guid: b8f4dff4852baab4f8b664de3a255700, type: 3}
  m_Name: 
  m_EditorClassIdentifier: 
--- !u!4 &2860838263391732899 stripped
Transform:
  m_CorrespondingSourceObject: {fileID: 5375619695730952806, guid: 68da59d7e43ccb641a59f73727a830a8, type: 3}
  m_PrefabInstance: {fileID: 7866016821502824133}
  m_PrefabAsset: {fileID: 0}
--- !u!1001 &8192705924358051314
PrefabInstance:
  m_ObjectHideFlags: 0
  serializedVersion: 2
  m_Modification:
    m_TransformParent: {fileID: 1729553632065507703}
    m_Modifications:
    - target: {fileID: 5375619695730952806, guid: 68da59d7e43ccb641a59f73727a830a8, type: 3}
      propertyPath: m_RootOrder
      value: 7
      objectReference: {fileID: 0}
    - target: {fileID: 5375619695730952806, guid: 68da59d7e43ccb641a59f73727a830a8, type: 3}
      propertyPath: m_LocalPosition.x
      value: -4.5
      objectReference: {fileID: 0}
    - target: {fileID: 5375619695730952806, guid: 68da59d7e43ccb641a59f73727a830a8, type: 3}
      propertyPath: m_LocalPosition.y
      value: 0
      objectReference: {fileID: 0}
    - target: {fileID: 5375619695730952806, guid: 68da59d7e43ccb641a59f73727a830a8, type: 3}
      propertyPath: m_LocalPosition.z
      value: 0
      objectReference: {fileID: 0}
    - target: {fileID: 5375619695730952806, guid: 68da59d7e43ccb641a59f73727a830a8, type: 3}
      propertyPath: m_LocalRotation.w
      value: 1
      objectReference: {fileID: 0}
    - target: {fileID: 5375619695730952806, guid: 68da59d7e43ccb641a59f73727a830a8, type: 3}
      propertyPath: m_LocalRotation.x
      value: -0
      objectReference: {fileID: 0}
    - target: {fileID: 5375619695730952806, guid: 68da59d7e43ccb641a59f73727a830a8, type: 3}
      propertyPath: m_LocalRotation.y
      value: -0
      objectReference: {fileID: 0}
    - target: {fileID: 5375619695730952806, guid: 68da59d7e43ccb641a59f73727a830a8, type: 3}
      propertyPath: m_LocalRotation.z
      value: -0
      objectReference: {fileID: 0}
    - target: {fileID: 5375619695730952806, guid: 68da59d7e43ccb641a59f73727a830a8, type: 3}
      propertyPath: m_LocalEulerAnglesHint.x
      value: 0
      objectReference: {fileID: 0}
    - target: {fileID: 5375619695730952806, guid: 68da59d7e43ccb641a59f73727a830a8, type: 3}
      propertyPath: m_LocalEulerAnglesHint.y
      value: 0
      objectReference: {fileID: 0}
    - target: {fileID: 5375619695730952806, guid: 68da59d7e43ccb641a59f73727a830a8, type: 3}
      propertyPath: m_LocalEulerAnglesHint.z
      value: 0
      objectReference: {fileID: 0}
    - target: {fileID: 5375619695730952807, guid: 68da59d7e43ccb641a59f73727a830a8, type: 3}
      propertyPath: m_Name
      value: mode (6)
      objectReference: {fileID: 0}
    m_RemovedComponents: []
  m_SourcePrefab: {fileID: 100100000, guid: 68da59d7e43ccb641a59f73727a830a8, type: 3}
--- !u!4 &4262761502676262804 stripped
Transform:
  m_CorrespondingSourceObject: {fileID: 5375619695730952806, guid: 68da59d7e43ccb641a59f73727a830a8, type: 3}
  m_PrefabInstance: {fileID: 8192705924358051314}
  m_PrefabAsset: {fileID: 0}
--- !u!114 &4262761502676262803 stripped
MonoBehaviour:
  m_CorrespondingSourceObject: {fileID: 5375619695730952801, guid: 68da59d7e43ccb641a59f73727a830a8, type: 3}
  m_PrefabInstance: {fileID: 8192705924358051314}
  m_PrefabAsset: {fileID: 0}
  m_GameObject: {fileID: 0}
  m_Enabled: 1
  m_EditorHideFlags: 0
  m_Script: {fileID: 11500000, guid: b8f4dff4852baab4f8b664de3a255700, type: 3}
  m_Name: 
  m_EditorClassIdentifier: 
